ID_HOLYDAYS,ID_COUNTRY,YEAR,MONTH,DAY,DESCRIPTION_DAY,PUBLIC_HOLYDAY
1,57,2019,1,1,MARTES,Y
2,57,2019,1,2,MIERCOLES,N
3,57,2019,1,3,JUEVEZ,N
4,57,2019,1,4,VIERNES,N
5,57,2019,1,5,SABADO,N
6,57,2019,1,6,DOMINGO,N
7,57,2019,1,7,LUNES,Y
8,57,2019,1,8,MARTES,N
9,57,2019,1,9,MIERCOLES,N
10,57,2019,1,10,JUEVEZ,N
11,57,2019,1,11,VIERNES,N
12,57,2019,1,12,SABADO,N
13,57,2019,1,13,DOMINGO,N
14,57,2019,1,14,LUNES,N
15,57,2019,1,15,MARTES,N
16,57,2019,1,16,MIERCOLES,N
17,57,2019,1,17,JUEVEZ,N
18,57,2019,1,18,VIERNES,N
19,57,2019,1,19,SABADO,N
20,57,2019,1,20,DOMINGO,N
21,57,2019,1,21,LUNES,N
22,57,2019,1,22,MARTES,N
23,57,2019,1,23,MIERCOLES,N
24,57,2019,1,24,JUEVEZ,N
25,57,2019,1,25,VIERNES,N
26,57,2019,1,26,SABADO,N
27,57,2019,1,27,DOMINGO,N
28,57,2019,1,28,LUNES,N
29,57,2019,1,29,MARTES,N
30,57,2019,1,30,MIERCOLES,N
31,57,2019,1,31,JUEVEZ,N
32,57,2019,2,1,VIERNES,N
33,57,2019,2,2,SABADO,N
34,57,2019,2,3,DOMINGO,N
35,57,2019,2,4,LUNES,N
36,57,2019,2,5,MARTES,N
37,57,2019,2,6,MIERCOLES,N
38,57,2019,2,7,JUEVEZ,N
39,57,2019,2,8,VIERNES,N
40,57,2019,2,9,SABADO,N
41,57,2019,2,10,DOMINGO,N
42,57,2019,2,11,LUNES,N
43,57,2019,2,12,MARTES,N
44,57,2019,2,13,MIERCOLES,N
45,57,2019,2,14,JUEVEZ,N
46,57,2019,2,15,VIERNES,N
47,57,2019,2,16,SABADO,N
48,57,2019,2,17,DOMINGO,N
49,57,2019,2,18,LUNES,N
50,57,2019,2,19,MARTES,N
51,57,2019,2,20,MIERCOLES,N
52,57,2019,2,21,JUEVEZ,N
53,57,2019,2,22,VIERNES,N
54,57,2019,2,23,SABADO,N
55,57,2019,2,24,DOMINGO,N
56,57,2019,2,25,LUNES,N
57,57,2019,2,26,MARTES,N
58,57,2019,2,27,MIERCOLES,N
59,57,2019,2,28,JUEVEZ,N
60,57,2019,3,1,VIERNES,N
61,57,2019,3,2,SABADO,N
62,57,2019,3,3,DOMINGO,N
63,57,2019,3,4,LUNES,N
64,57,2019,3,5,MARTES,N
65,57,2019,3,6,MIERCOLES,N
66,57,2019,3,7,JUEVEZ,N
67,57,2019,3,8,VIERNES,N
68,57,2019,3,9,SABADO,N
69,57,2019,3,10,DOMINGO,N
70,57,2019,3,11,LUNES,N
71,57,2019,3,12,MARTES,N
72,57,2019,3,13,MIERCOLES,N
73,57,2019,3,14,JUEVEZ,N
74,57,2019,3,15,VIERNES,N
75,57,2019,3,16,SABADO,N
76,57,2019,3,17,DOMINGO,N
77,57,2019,3,18,LUNES,N
78,57,2019,3,19,MARTES,N
79,57,2019,3,20,MIERCOLES,N
80,57,2019,3,21,JUEVEZ,N
81,57,2019,3,22,VIERNES,N
82,57,2019,3,23,SABADO,N
83,57,2019,3,24,DOMINGO,N
84,57,2019,3,25,LUNES,Y
85,57,2019,3,26,MARTES,N
86,57,2019,3,27,MIERCOLES,N
87,57,2019,3,28,JUEVEZ,N
88,57,2019,3,29,VIERNES,N
89,57,2019,3,30,SABADO,N
90,57,2019,3,31,DOMINGO,N
91,57,2019,4,1,LUNES,N
92,57,2019,4,2,MARTES,N
93,57,2019,4,3,MIERCOLES,N
94,57,2019,4,4,JUEVEZ,N
95,57,2019,4,5,VIERNES,N
96,57,2019,4,6,SABADO,N
97,57,2019,4,7,DOMINGO,N
98,57,2019,4,8,LUNES,N
99,57,2019,4,9,MARTES,N
100,57,2019,4,10,MIERCOLES,N
101,57,2019,4,11,JUEVEZ,N
102,57,2019,4,12,VIERNES,N
103,57,2019,4,13,SABADO,N
104,57,2019,4,14,DOMINGO,N
105,57,2019,4,15,LUNES,N
106,57,2019,4,16,MARTES,N
107,57,2019,4,17,MIERCOLES,N
108,57,2019,4,18,JUEVEZ,Y
109,57,2019,4,19,VIERNES,Y
110,57,2019,4,20,SABADO,N
111,57,2019,4,21,DOMINGO,N
112,57,2019,4,22,LUNES,N
113,57,2019,4,23,MARTES,N
114,57,2019,4,24,MIERCOLES,N
115,57,2019,4,25,JUEVEZ,N
116,57,2019,4,26,VIERNES,N
117,57,2019,4,27,SABADO,N
118,57,2019,4,28,DOMINGO,N
119,57,2019,4,29,LUNES,N
120,57,2019,4,30,MARTES,N
121,57,2019,5,1,MIERCOLES,Y
122,57,2019,5,2,JUEVEZ,N
123,57,2019,5,3,VIERNES,N
124,57,2019,5,4,SABADO,N
125,57,2019,5,5,DOMINGO,N
126,57,2019,5,6,LUNES,N
127,57,2019,5,7,MARTES,N
128,57,2019,5,8,MIERCOLES,N
129,57,2019,5,9,JUEVEZ,N
130,57,2019,5,10,VIERNES,N
131,57,2019,5,11,SABADO,N
132,57,2019,5,12,DOMINGO,N
133,57,2019,5,13,LUNES,N
134,57,2019,5,14,MARTES,N
135,57,2019,5,15,MIERCOLES,N
136,57,2019,5,16,JUEVEZ,N
137,57,2019,5,17,VIERNES,N
138,57,2019,5,18,SABADO,N
139,57,2019,5,19,DOMINGO,N
140,57,2019,5,20,LUNES,N
141,57,2019,5,21,MARTES,N
142,57,2019,5,22,MIERCOLES,N
143,57,2019,5,23,JUEVEZ,N
144,57,2019,5,24,VIERNES,N
145,57,2019,5,25,SABADO,N
146,57,2019,5,26,DOMINGO,N
147,57,2019,5,27,LUNES,N
148,57,2019,5,28,MARTES,N
149,57,2019,5,29,MIERCOLES,N
150,57,2019,5,30,JUEVEZ,N
151,57,2019,5,31,VIERNES,N
152,57,2019,6,1,SABADO,N
153,57,2019,6,2,DOMINGO,N
154,57,2019,6,3,LUNES,Y
155,57,2019,6,4,MARTES,N
156,57,2019,6,5,MIERCOLES,N
157,57,2019,6,6,JUEVEZ,N
158,57,2019,6,7,VIERNES,N
159,57,2019,6,8,SABADO,N
160,57,2019,6,9,DOMINGO,N
161,57,2019,6,10,LUNES,N
162,57,2019,6,11,MARTES,N
163,57,2019,6,12,MIERCOLES,N
164,57,2019,6,13,JUEVEZ,N
165,57,2019,6,14,VIERNES,N
166,57,2019,6,15,SABADO,N
167,57,2019,6,16,DOMINGO,N
168,57,2019,6,17,LUNES,N
169,57,2019,6,18,MARTES,N
170,57,2019,6,19,MIERCOLES,N
171,57,2019,6,20,JUEVEZ,N
172,57,2019,6,21,VIERNES,N
173,57,2019,6,22,SABADO,N
174,57,2019,6,23,DOMINGO,N
175,57,2019,6,24,LUNES,Y
176,57,2019,6,25,MARTES,N
177,57,2019,6,26,MIERCOLES,N
178,57,2019,6,27,JUEVEZ,N
179,57,2019,6,28,VIERNES,N
180,57,2019,6,29,SABADO,N
181,57,2019,6,30,DOMINGO,N
182,57,2019,7,1,LUNES,Y
183,57,2019,7,2,MARTES,N
184,57,2019,7,3,MIERCOLES,N
185,57,2019,7,4,JUEVEZ,N
186,57,2019,7,5,VIERNES,N
187,57,2019,7,6,SABADO,N
188,57,2019,7,7,DOMINGO,N
189,57,2019,7,8,LUNES,N
190,57,2019,7,9,MARTES,N
191,57,2019,7,10,MIERCOLES,N
192,57,2019,7,11,JUEVEZ,N
193,57,2019,7,12,VIERNES,N
194,57,2019,7,13,SABADO,N
195,57,2019,7,14,DOMINGO,N
196,57,2019,7,15,LUNES,N
197,57,2019,7,16,MARTES,N
198,57,2019,7,17,MIERCOLES,N
199,57,2019,7,18,JUEVEZ,N
200,57,2019,7,19,VIERNES,N
201,57,2019,7,20,SABADO,Y
202,57,2019,7,21,DOMINGO,N
203,57,2019,7,22,LUNES,N
204,57,2019,7,23,MARTES,N
205,57,2019,7,24,MIERCOLES,N
206,57,2019,7,25,JUEVEZ,N
207,57,2019,7,26,VIERNES,N
208,57,2019,7,27,SABADO,N
209,57,2019,7,28,DOMINGO,N
210,57,2019,7,29,LUNES,N
211,57,2019,7,30,MARTES,N
212,57,2019,7,31,MIERCOLES,N
213,57,2019,8,1,JUEVEZ,N
214,57,2019,8,2,VIERNES,N
215,57,2019,8,3,SABADO,N
216,57,2019,8,4,DOMINGO,N
217,57,2019,8,5,LUNES,N
218,57,2019,8,6,MARTES,N
219,57,2019,8,7,MIERCOLES,Y
220,57,2019,8,8,JUEVEZ,N
221,57,2019,8,9,VIERNES,N
222,57,2019,8,10,SABADO,N
223,57,2019,8,11,DOMINGO,N
224,57,2019,8,12,LUNES,N
225,57,2019,8,13,MARTES,N
226,57,2019,8,14,MIERCOLES,N
227,57,2019,8,15,JUEVEZ,N
228,57,2019,8,16,VIERNES,N
229,57,2019,8,17,SABADO,N
230,57,2019,8,18,DOMINGO,N
231,57,2019,8,19,LUNES,Y
232,57,2019,8,20,MARTES,N
233,57,2019,8,21,MIERCOLES,N
234,57,2019,8,22,JUEVEZ,N
235,57,2019,8,23,VIERNES,N
236,57,2019,8,24,SABADO,N
237,57,2019,8,25,DOMINGO,N
238,57,2019,8,26,LUNES,N
239,57,2019,8,27,MARTES,N
240,57,2019,8,28,MIERCOLES,N
241,57,2019,8,29,JUEVEZ,N
242,57,2019,8,30,VIERNES,N
243,57,2019,8,31,SABADO,N
244,57,2019,9,1,DOMINGO,N
245,57,2019,9,2,LUNES,N
246,57,2019,9,3,MARTES,N
247,57,2019,9,4,MIERCOLES,N
248,57,2019,9,5,JUEVEZ,N
249,57,2019,9,6,VIERNES,N
250,57,2019,9,7,SABADO,N
251,57,2019,9,8,DOMINGO,N
252,57,2019,9,9,LUNES,N
253,57,2019,9,10,MARTES,N
254,57,2019,9,11,MIERCOLES,N
255,57,2019,9,12,JUEVEZ,N
256,57,2019,9,13,VIERNES,N
257,57,2019,9,14,SABADO,N
258,57,2019,9,15,DOMINGO,N
259,57,2019,9,16,LUNES,N
260,57,2019,9,17,MARTES,N
261,57,2019,9,18,MIERCOLES,N
262,57,2019,9,19,JUEVEZ,N
263,57,2019,9,20,VIERNES,N
264,57,2019,9,21,SABADO,N
265,57,2019,9,22,DOMINGO,N
266,57,2019,9,23,LUNES,N
267,57,2019,9,24,MARTES,N
268,57,2019,9,25,MIERCOLES,N
269,57,2019,9,26,JUEVEZ,N
270,57,2019,9,27,VIERNES,N
271,57,2019,9,28,SABADO,N
272,57,2019,9,29,DOMINGO,N
273,57,2019,9,30,LUNES,N
274,57,2019,10,1,MARTES,N
275,57,2019,10,2,MIERCOLES,N
276,57,2019,10,3,JUEVEZ,N
277,57,2019,10,4,VIERNES,N
278,57,2019,10,5,SABADO,N
279,57,2019,10,6,DOMINGO,N
280,57,2019,10,7,LUNES,N
281,57,2019,10,8,MARTES,N
282,57,2019,10,9,MIERCOLES,N
283,57,2019,10,10,JUEVEZ,N
284,57,2019,10,11,VIERNES,N
285,57,2019,10,12,SABADO,N
286,57,2019,10,13,DOMINGO,N
287,57,2019,10,14,LUNES,Y
288,57,2019,10,15,MARTES,N
289,57,2019,10,16,MIERCOLES,N
290,57,2019,10,17,JUEVEZ,N
291,57,2019,10,18,VIERNES,N
292,57,2019,10,19,SABADO,N
293,57,2019,10,20,DOMINGO,N
294,57,2019,10,21,LUNES,N
295,57,2019,10,22,MARTES,N
296,57,2019,10,23,MIERCOLES,N
297,57,2019,10,24,JUEVEZ,N
298,57,2019,10,25,VIERNES,N
299,57,2019,10,26,SABADO,N
300,57,2019,10,27,DOMINGO,N
301,57,2019,10,28,LUNES,N
302,57,2019,10,29,MARTES,N
303,57,2019,10,30,MIERCOLES,N
304,57,2019,10,31,JUEVEZ,N
305,57,2019,11,1,VIERNES,N
306,57,2019,11,2,SABADO,N
307,57,2019,11,3,DOMINGO,N
308,57,2019,11,4,LUNES,Y
309,57,2019,11,5,MARTES,N
310,57,2019,11,6,MIERCOLES,N
311,57,2019,11,7,JUEVEZ,N
312,57,2019,11,8,VIERNES,N
313,57,2019,11,9,SABADO,N
314,57,2019,11,10,DOMINGO,N
315,57,2019,11,11,LUNES,Y
316,57,2019,11,12,MARTES,N
317,57,2019,11,13,MIERCOLES,N
318,57,2019,11,14,JUEVEZ,N
319,57,2019,11,15,VIERNES,N
320,57,2019,11,16,SABADO,N
321,57,2019,11,17,DOMINGO,N
322,57,2019,11,18,LUNES,N
323,57,2019,11,19,MARTES,N
324,57,2019,11,20,MIERCOLES,N
325,57,2019,11,21,JUEVEZ,N
326,57,2019,11,22,VIERNES,N
327,57,2019,11,23,SABADO,N
328,57,2019,11,24,DOMINGO,N
329,57,2019,11,25,LUNES,N
330,57,2019,11,26,MARTES,N
331,57,2019,11,27,MIERCOLES,N
332,57,2019,11,28,JUEVEZ,N
333,57,2019,11,29,VIERNES,N
334,57,2019,11,30,SABADO,N
335,57,2019,12,1,DOMINGO,N
336,57,2019,12,2,LUNES,N
337,57,2019,12,3,MARTES,N
338,57,2019,12,4,MIERCOLES,N
339,57,2019,12,5,JUEVEZ,N
340,57,2019,12,6,VIERNES,N
341,57,2019,12,7,SABADO,N
342,57,2019,12,8,DOMINGO,Y
343,57,2019,12,9,LUNES,N
344,57,2019,12,10,MARTES,N
345,57,2019,12,11,MIERCOLES,N
346,57,2019,12,12,JUEVEZ,N
347,57,2019,12,13,VIERNES,N
348,57,2019,12,14,SABADO,N
349,57,2019,12,15,DOMINGO,N
350,57,2019,12,16,LUNES,N
351,57,2019,12,17,MARTES,N
352,57,2019,12,18,MIERCOLES,N
353,57,2019,12,19,JUEVEZ,N
354,57,2019,12,20,VIERNES,N
355,57,2019,12,21,SABADO,N
356,57,2019,12,22,DOMINGO,N
357,57,2019,12,23,LUNES,N
358,57,2019,12,24,MARTES,N
359,57,2019,12,25,MIERCOLES,Y
360,57,2019,12,26,JUEVEZ,N
361,57,2019,12,27,VIERNES,N
362,57,2019,12,28,SABADO,N
363,57,2019,12,29,DOMINGO,N
364,57,2019,12,30,LUNES,N
365,57,2019,12,31,MARTES,N
366,1,2019,1,1,MARTES,Y
367,1,2019,1,2,MIERCOLES,N
368,1,2019,1,3,JUEVEZ,N
369,1,2019,1,4,VIERNES,N
370,1,2019,1,5,SABADO,N
371,1,2019,1,6,DOMINGO,N
372,1,2019,1,7,LUNES,N
373,1,2019,1,8,MARTES,N
374,1,2019,1,9,MIERCOLES,N
375,1,2019,1,10,JUEVEZ,N
376,1,2019,1,11,VIERNES,N
377,1,2019,1,12,SABADO,N
378,1,2019,1,13,DOMINGO,N
379,1,2019,1,14,LUNES,N
380,1,2019,1,15,MARTES,N
381,1,2019,1,16,MIERCOLES,N
382,1,2019,1,17,JUEVEZ,N
383,1,2019,1,18,VIERNES,N
384,1,2019,1,19,SABADO,N
385,1,2019,1,20,DOMINGO,N
386,1,2019,1,21,LUNES,Y
387,1,2019,1,22,MARTES,N
388,1,2019,1,23,MIERCOLES,N
389,1,2019,1,24,JUEVEZ,N
390,1,2019,1,25,VIERNES,N
391,1,2019,1,26,SABADO,N
392,1,2019,1,27,DOMINGO,N
393,1,2019,1,28,LUNES,N
394,1,2019,1,29,MARTES,N
395,1,2019,1,30,MIERCOLES,N
396,1,2019,1,31,JUEVEZ,N
397,1,2019,2,1,VIERNES,N
398,1,2019,2,2,SABADO,N
399,1,2019,2,3,DOMINGO,N
400,1,2019,2,4,LUNES,N
401,1,2019,2,5,MARTES,N
402,1,2019,2,6,MIERCOLES,N
403,1,2019,2,7,JUEVEZ,N
404,1,2019,2,8,VIERNES,N
405,1,2019,2,9,SABADO,N
406,1,2019,2,10,DOMINGO,N
407,1,2019,2,11,LUNES,N
408,1,2019,2,12,MARTES,N
409,1,2019,2,13,MIERCOLES,N
410,1,2019,2,14,JUEVEZ,N
411,1,2019,2,15,VIERNES,N
412,1,2019,2,16,SABADO,N
413,1,2019,2,17,DOMINGO,N
414,1,2019,2,18,LUNES,Y
415,1,2019,2,19,MARTES,N
416,1,2019,2,20,MIERCOLES,N
417,1,2019,2,21,JUEVEZ,N
418,1,2019,2,22,VIERNES,N
419,1,2019,2,23,SABADO,N
420,1,2019,2,24,DOMINGO,N
421,1,2019,2,25,LUNES,N
422,1,2019,2,26,MARTES,N
423,1,2019,2,27,MIERCOLES,N
424,1,2019,2,28,JUEVEZ,N
425,1,2019,3,1,VIERNES,N
426,1,2019,3,2,SABADO,N
427,1,2019,3,3,DOMINGO,N
428,1,2019,3,4,LUNES,N
429,1,2019,3,5,MARTES,N
430,1,2019,3,6,MIERCOLES,N
431,1,2019,3,7,JUEVEZ,N
432,1,2019,3,8,VIERNES,N
433,1,2019,3,9,SABADO,N
434,1,2019,3,10,DOMINGO,N
435,1,2019,3,11,LUNES,N
436,1,2019,3,12,MARTES,N
437,1,2019,3,13,MIERCOLES,N
438,1,2019,3,14,JUEVEZ,N
439,1,2019,3,15,VIERNES,N
440,1,2019,3,16,SABADO,N
441,1,2019,3,17,DOMINGO,N
442,1,2019,3,18,LUNES,N
443,1,2019,3,19,MARTES,N
444,1,2019,3,20,MIERCOLES,N
445,1,2019,3,21,JUEVEZ,N
446,1,2019,3,22,VIERNES,N
447,1,2019,3,23,SABADO,N
448,1,2019,3,24,DOMINGO,N
449,1,2019,3,25,LUNES,N
450,1,2019,3,26,MARTES,N
451,1,2019,3,27,MIERCOLES,N
452,1,2019,3,28,JUEVEZ,N
453,1,2019,3,29,VIERNES,N
454,1,2019,3,30,SABADO,N
455,1,2019,3,31,DOMINGO,N
456,1,2019,4,1,LUNES,N
457,1,2019,4,2,MARTES,N
458,1,2019,4,3,MIERCOLES,N
459,1,2019,4,4,JUEVEZ,N
460,1,2019,4,5,VIERNES,N
461,1,2019,4,6,SABADO,N
462,1,2019,4,7,DOMINGO,N
463,1,2019,4,8,LUNES,N
464,1,2019,4,9,MARTES,N
465,1,2019,4,10,MIERCOLES,N
466,1,2019,4,11,JUEVEZ,N
467,1,2019,4,12,VIERNES,N
468,1,2019,4,13,SABADO,N
469,1,2019,4,14,DOMINGO,N
470,1,2019,4,15,LUNES,N
471,1,2019,4,16,MARTES,N
472,1,2019,4,17,MIERCOLES,N
473,1,2019,4,18,JUEVEZ,N
474,1,2019,4,19,VIERNES,N
475,1,2019,4,20,SABADO,N
476,1,2019,4,21,DOMINGO,N
477,1,2019,4,22,LUNES,N
478,1,2019,4,23,MARTES,N
479,1,2019,4,24,MIERCOLES,N
480,1,2019,4,25,JUEVEZ,N
481,1,2019,4,26,VIERNES,N
482,1,2019,4,27,SABADO,N
483,1,2019,4,28,DOMINGO,N
484,1,2019,4,29,LUNES,N
485,1,2019,4,30,MARTES,N
486,1,2019,5,1,MIERCOLES,N
487,1,2019,5,2,JUEVEZ,N
488,1,2019,5,3,VIERNES,N
489,1,2019,5,4,SABADO,N
490,1,2019,5,5,DOMINGO,N
491,1,2019,5,6,LUNES,N
492,1,2019,5,7,MARTES,N
493,1,2019,5,8,MIERCOLES,N
494,1,2019,5,9,JUEVEZ,N
495,1,2019,5,10,VIERNES,N
496,1,2019,5,11,SABADO,N
497,1,2019,5,12,DOMINGO,N
498,1,2019,5,13,LUNES,N
499,1,2019,5,14,MARTES,N
500,1,2019,5,15,MIERCOLES,N
501,1,2019,5,16,JUEVEZ,N
502,1,2019,5,17,VIERNES,N
503,1,2019,5,18,SABADO,N
504,1,2019,5,19,DOMINGO,N
505,1,2019,5,20,LUNES,N
506,1,2019,5,21,MARTES,N
507,1,2019,5,22,MIERCOLES,N
508,1,2019,5,23,JUEVEZ,N
509,1,2019,5,24,VIERNES,N
510,1,2019,5,25,SABADO,N
511,1,2019,5,26,DOMINGO,N
512,1,2019,5,27,LUNES,N
513,1,2019,5,28,MARTES,N
514,1,2019,5,29,MIERCOLES,N
515,1,2019,5,30,JUEVEZ,N
516,1,2019,5,31,VIERNES,N
517,1,2019,6,1,SABADO,N
518,1,2019,6,2,DOMINGO,N
519,1,2019,6,3,LUNES,N
520,1,2019,6,4,MARTES,N
521,1,2019,6,5,MIERCOLES,N
522,1,2019,6,6,JUEVEZ,N
523,1,2019,6,7,VIERNES,N
524,1,2019,6,8,SABADO,N
525,1,2019,6,9,DOMINGO,N
526,1,2019,6,10,LUNES,N
527,1,2019,6,11,MARTES,N
528,1,2019,6,12,MIERCOLES,N
529,1,2019,6,13,JUEVEZ,N
530,1,2019,6,14,VIERNES,N
531,1,2019,6,15,SABADO,N
532,1,2019,6,16,DOMINGO,N
533,1,2019,6,17,LUNES,N
534,1,2019,6,18,MARTES,N
535,1,2019,6,19,MIERCOLES,N
536,1,2019,6,20,JUEVEZ,N
537,1,2019,6,21,VIERNES,N
538,1,2019,6,22,SABADO,N
539,1,2019,6,23,DOMINGO,N
540,1,2019,6,24,LUNES,N
541,1,2019,6,25,MARTES,N
542,1,2019,6,26,MIERCOLES,N
543,1,2019,6,27,JUEVEZ,N
544,1,2019,6,28,VIERNES,N
545,1,2019,6,29,SABADO,N
546,1,2019,6,30,DOMINGO,N
547,1,2019,7,1,LUNES,N
548,1,2019,7,2,MARTES,N
549,1,2019,7,3,MIERCOLES,N
550,1,2019,7,4,JUEVEZ,Y
551,1,2019,7,5,VIERNES,N
552,1,2019,7,6,SABADO,N
553,1,2019,7,7,DOMINGO,N
554,1,2019,7,8,LUNES,N
555,1,2019,7,9,MARTES,N
556,1,2019,7,10,MIERCOLES,N
557,1,2019,7,11,JUEVEZ,N
558,1,2019,7,12,VIERNES,N
559,1,2019,7,13,SABADO,N
560,1,2019,7,14,DOMINGO,N
561,1,2019,7,15,LUNES,N
562,1,2019,7,16,MARTES,N
563,1,2019,7,17,MIERCOLES,N
564,1,2019,7,18,JUEVEZ,N
565,1,2019,7,19,VIERNES,N
566,1,2019,7,20,SABADO,N
567,1,2019,7,21,DOMINGO,N
568,1,2019,7,22,LUNES,N
569,1,2019,7,23,MARTES,N
570,1,2019,7,24,MIERCOLES,N
571,1,2019,7,25,JUEVEZ,N
572,1,2019,7,26,VIERNES,N
573,1,2019,7,27,SABADO,N
574,1,2019,7,28,DOMINGO,N
575,1,2019,7,29,LUNES,N
576,1,2019,7,30,MARTES,N
577,1,2019,7,31,MIERCOLES,N
578,1,2019,8,1,JUEVEZ,N
579,1,2019,8,2,VIERNES,N
580,1,2019,8,3,SABADO,N
581,1,2019,8,4,DOMINGO,N
582,1,2019,8,5,LUNES,N
583,1,2019,8,6,MARTES,N
584,1,2019,8,7,MIERCOLES,N
585,1,2019,8,8,JUEVEZ,N
586,1,2019,8,9,VIERNES,N
587,1,2019,8,10,SABADO,N
588,1,2019,8,11,DOMINGO,N
589,1,2019,8,12,LUNES,N
590,1,2019,8,13,MARTES,N
591,1,2019,8,14,MIERCOLES,N
592,1,2019,8,15,JUEVEZ,N
593,1,2019,8,16,VIERNES,N
594,1,2019,8,17,SABADO,N
595,1,2019,8,18,DOMINGO,N
596,1,2019,8,19,LUNES,N
597,1,2019,8,20,MARTES,N
598,1,2019,8,21,MIERCOLES,N
599,1,2019,8,22,JUEVEZ,N
600,1,2019,8,23,VIERNES,N
601,1,2019,8,24,SABADO,N
602,1,2019,8,25,DOMINGO,N
603,1,2019,8,26,LUNES,N
604,1,2019,8,27,MARTES,N
605,1,2019,8,28,MIERCOLES,N
606,1,2019,8,29,JUEVEZ,N
607,1,2019,8,30,VIERNES,N
608,1,2019,8,31,SABADO,N
609,1,2019,9,1,DOMINGO,N
610,1,2019,9,2,LUNES,Y
611,1,2019,9,3,MARTES,N
612,1,2019,9,4,MIERCOLES,N
613,1,2019,9,5,JUEVEZ,N
614,1,2019,9,6,VIERNES,N
615,1,2019,9,7,SABADO,N
616,1,2019,9,8,DOMINGO,N
617,1,2019,9,9,LUNES,N
618,1,2019,9,10,MARTES,N
619,1,2019,9,11,MIERCOLES,N
620,1,2019,9,12,JUEVEZ,N
621,1,2019,9,13,VIERNES,N
622,1,2019,9,14,SABADO,N
623,1,2019,9,15,DOMINGO,N
624,1,2019,9,16,LUNES,N
625,1,2019,9,17,MARTES,N
626,1,2019,9,18,MIERCOLES,N
627,1,2019,9,19,JUEVEZ,N
628,1,2019,9,20,VIERNES,N
629,1,2019,9,21,SABADO,N
630,1,2019,9,22,DOMINGO,N
631,1,2019,9,23,LUNES,N
632,1,2019,9,24,MARTES,N
633,1,2019,9,25,MIERCOLES,N
634,1,2019,9,26,JUEVEZ,N
635,1,2019,9,27,VIERNES,N
636,1,2019,9,28,SABADO,N
637,1,2019,9,29,DOMINGO,N
638,1,2019,9,30,LUNES,N
639,1,2019,10,1,MARTES,N
640,1,2019,10,2,MIERCOLES,N
641,1,2019,10,3,JUEVEZ,N
642,1,2019,10,4,VIERNES,N
643,1,2019,10,5,SABADO,N
644,1,2019,10,6,DOMINGO,N
645,1,2019,10,7,LUNES,N
646,1,2019,10,8,MARTES,N
647,1,2019,10,9,MIERCOLES,N
648,1,2019,10,10,JUEVEZ,N
649,1,2019,10,11,VIERNES,N
650,1,2019,10,12,SABADO,N
651,1,2019,10,13,DOMINGO,N
652,1,2019,10,14,LUNES,Y
653,1,2019,10,15,MARTES,N
654,1,2019,10,16,MIERCOLES,N
655,1,2019,10,17,JUEVEZ,N
656,1,2019,10,18,VIERNES,N
657,1,2019,10,19,SABADO,N
658,1,2019,10,20,DOMINGO,N
659,1,2019,10,21,LUNES,N
660,1,2019,10,22,MARTES,N
661,1,2019,10,23,MIERCOLES,N
662,1,2019,10,24,JUEVEZ,N
663,1,2019,10,25,VIERNES,N
664,1,2019,10,26,SABADO,N
665,1,2019,10,27,DOMINGO,N
666,1,2019,10,28,LUNES,N
667,1,2019,10,29,MARTES,N
668,1,2019,10,30,MIERCOLES,N
669,1,2019,10,31,JUEVEZ,N
670,1,2019,11,1,VIERNES,N
671,1,2019,11,2,SABADO,N
672,1,2019,11,3,DOMINGO,N
673,1,2019,11,4,LUNES,N
674,1,2019,11,5,MARTES,N
675,1,2019,11,6,MIERCOLES,N
676,1,2019,11,7,JUEVEZ,N
677,1,2019,11,8,VIERNES,N
678,1,2019,11,9,SABADO,N
679,1,2019,11,10,DOMINGO,N
680,1,2019,11,11,LUNES,Y
681,1,2019,11,12,MARTES,N
682,1,2019,11,13,MIERCOLES,N
683,1,2019,11,14,JUEVEZ,N
684,1,2019,11,15,VIERNES,N
685,1,2019,11,16,SABADO,N
686,1,2019,11,17,DOMINGO,N
687,1,2019,11,18,LUNES,N
688,1,2019,11,19,MARTES,N
689,1,2019,11,20,MIERCOLES,N
690,1,2019,11,21,JUEVEZ,N
691,1,2019,11,22,VIERNES,N
692,1,2019,11,23,SABADO,N
693,1,2019,11,24,DOMINGO,N
694,1,2019,11,25,LUNES,N
695,1,2019,11,26,MARTES,N
696,1,2019,11,27,MIERCOLES,N
697,1,2019,11,28,JUEVEZ,Y
698,1,2019,11,29,VIERNES,N
699,1,2019,11,30,SABADO,N
700,1,2019,12,1,DOMINGO,N
701,1,2019,12,2,LUNES,N
702,1,2019,12,3,MARTES,N
703,1,2019,12,4,MIERCOLES,N
704,1,2019,12,5,JUEVEZ,N
705,1,2019,12,6,VIERNES,N
706,1,2019,12,7,SABADO,N
707,1,2019,12,8,DOMINGO,N
708,1,2019,12,9,LUNES,N
709,1,2019,12,10,MARTES,N
710,1,2019,12,11,MIERCOLES,N
711,1,2019,12,12,JUEVEZ,N
712,1,2019,12,13,VIERNES,N
713,1,2019,12,14,SABADO,N
714,1,2019,12,15,DOMINGO,N
715,1,2019,12,16,LUNES,N
716,1,2019,12,17,MARTES,N
717,1,2019,12,18,MIERCOLES,N
718,1,2019,12,19,JUEVEZ,N
719,1,2019,12,20,VIERNES,N
720,1,2019,12,21,SABADO,N
721,1,2019,12,22,DOMINGO,N
722,1,2019,12,23,LUNES,N
723,1,2019,12,24,MARTES,N
724,1,2019,12,25,MIERCOLES,Y
725,1,2019,12,26,JUEVEZ,N
726,1,2019,12,27,VIERNES,N
727,1,2019,12,28,SABADO,N
728,1,2019,12,29,DOMINGO,N
729,1,2019,12,30,LUNES,N
730,1,2019,12,31,MARTES,N
731,57,2020,1,1,MIERCOLES,Y
732,57,2020,1,2,JUEVEZ,N
733,57,2020,1,3,VIERNES,N
734,57,2020,1,4,SABADO,N
735,57,2020,1,5,DOMINGO,N
736,57,2020,1,6,LUNES,Y
737,57,2020,1,7,MARTES,N
738,57,2020,1,8,MIERCOLES,N
739,57,2020,1,9,JUEVEZ,N
740,57,2020,1,10,VIERNES,N
741,57,2020,1,11,SABADO,N
742,57,2020,1,12,DOMINGO,N
743,57,2020,1,13,LUNES,N
744,57,2020,1,14,MARTES,N
745,57,2020,1,15,MIERCOLES,N
746,57,2020,1,16,JUEVEZ,N
747,57,2020,1,17,VIERNES,N
748,57,2020,1,18,SABADO,N
749,57,2020,1,19,DOMINGO,N
750,57,2020,1,20,LUNES,N
751,57,2020,1,21,MARTES,N
752,57,2020,1,22,MIERCOLES,N
753,57,2020,1,23,JUEVEZ,Y
754,57,2020,1,24,VIERNES,N
755,57,2020,1,25,SABADO,N
756,57,2020,1,26,DOMINGO,N
757,57,2020,1,27,LUNES,N
758,57,2020,1,28,MARTES,N
759,57,2020,1,29,MIERCOLES,N
760,57,2020,1,30,JUEVEZ,N
761,57,2020,1,31,VIERNES,N
762,57,2020,2,1,SABADO,N
763,57,2020,2,2,DOMINGO,N
764,57,2020,2,3,LUNES,N
765,57,2020,2,4,MARTES,N
766,57,2020,2,5,MIERCOLES,N
767,57,2020,2,6,JUEVEZ,N
768,57,2020,2,7,VIERNES,N
769,57,2020,2,8,SABADO,N
770,57,2020,2,9,DOMINGO,N
771,57,2020,2,10,LUNES,N
772,57,2020,2,11,MARTES,N
773,57,2020,2,12,MIERCOLES,N
774,57,2020,2,13,JUEVEZ,N
775,57,2020,2,14,VIERNES,N
776,57,2020,2,15,SABADO,N
777,57,2020,2,16,DOMINGO,N
778,57,2020,2,17,LUNES,N
779,57,2020,2,18,MARTES,N
780,57,2020,2,19,MIERCOLES,N
781,57,2020,2,20,JUEVEZ,N
782,57,2020,2,21,VIERNES,N
783,57,2020,2,22,SABADO,N
784,57,2020,2,23,DOMINGO,N
785,57,2020,2,24,LUNES,N
786,57,2020,2,25,MARTES,N
787,57,2020,2,26,MIERCOLES,N
788,57,2020,2,27,JUEVEZ,N
789,57,2020,2,28,VIERNES,N
790,57,2020,2,29,SÁBADO,N
791,57,2020,3,1,DOMINGO,N
792,57,2020,3,2,LUNES,N
793,57,2020,3,3,MARTES,N
794,57,2020,3,4,MIERCOLES,N
795,57,2020,3,5,JUEVEZ,N
796,57,2020,3,6,VIERNES,N
797,57,2020,3,7,SABADO,N
798,57,2020,3,8,DOMINGO,N
799,57,2020,3,9,LUNES,N
800,57,2020,3,10,MARTES,N
801,57,2020,3,11,MIERCOLES,N
802,57,2020,3,12,JUEVEZ,N
803,57,2020,3,13,VIERNES,N
804,57,2020,3,14,SABADO,N
805,57,2020,3,15,DOMINGO,N
806,57,2020,3,16,LUNES,N
807,57,2020,3,17,MARTES,N
808,57,2020,3,18,MIERCOLES,N
809,57,2020,3,19,JUEVEZ,N
810,57,2020,3,20,VIERNES,N
811,57,2020,3,21,SABADO,N
812,57,2020,3,22,DOMINGO,N
813,57,2020,3,23,LUNES,N
814,57,2020,3,24,MARTES,N
815,57,2020,3,25,MIERCOLES,Y
816,57,2020,3,26,JUEVEZ,N
817,57,2020,3,27,VIERNES,N
818,57,2020,3,28,SABADO,N
819,57,2020,3,29,DOMINGO,N
820,57,2020,3,30,LUNES,N
821,57,2020,3,31,MARTES,N
822,57,2020,4,1,MIERCOLES,N
823,57,2020,4,2,JUEVEZ,N
824,57,2020,4,3,VIERNES,N
825,57,2020,4,4,SABADO,N
826,57,2020,4,5,DOMINGO,N
827,57,2020,4,6,LUNES,N
828,57,2020,4,7,MARTES,N
829,57,2020,4,8,MIERCOLES,N
830,57,2020,4,9,JUEVEZ,Y
831,57,2020,4,10,VIERNES,Y
832,57,2020,4,11,SABADO,N
833,57,2020,4,12,DOMINGO,N
834,57,2020,4,13,LUNES,N
835,57,2020,4,14,MARTES,N
836,57,2020,4,15,MIERCOLES,N
837,57,2020,4,16,JUEVEZ,N
838,57,2020,4,17,VIERNES,N
839,57,2020,4,18,SABADO,Y
840,57,2020,4,19,DOMINGO,Y
841,57,2020,4,20,LUNES,N
842,57,2020,4,21,MARTES,N
843,57,2020,4,22,MIERCOLES,N
844,57,2020,4,23,JUEVEZ,N
845,57,2020,4,24,VIERNES,N
846,57,2020,4,25,SABADO,N
847,57,2020,4,26,DOMINGO,N
848,57,2020,4,27,LUNES,N
849,57,2020,4,28,MARTES,N
850,57,2020,4,29,MIERCOLES,N
851,57,2020,4,30,JUEVEZ,N
852,57,2020,5,1,VIERNES,Y
853,57,2020,5,2,SABADO,N
854,57,2020,5,3,DOMINGO,N
855,57,2020,5,4,LUNES,N
856,57,2020,5,5,MARTES,N
857,57,2020,5,6,MIERCOLES,N
858,57,2020,5,7,JUEVEZ,N
859,57,2020,5,8,VIERNES,N
860,57,2020,5,9,SABADO,N
861,57,2020,5,10,DOMINGO,N
862,57,2020,5,11,LUNES,N
863,57,2020,5,12,MARTES,N
864,57,2020,5,13,MIERCOLES,N
865,57,2020,5,14,JUEVEZ,N
866,57,2020,5,15,VIERNES,N
867,57,2020,5,16,SABADO,N
868,57,2020,5,17,DOMINGO,N
869,57,2020,5,18,LUNES,N
870,57,2020,5,19,MARTES,N
871,57,2020,5,20,MIERCOLES,N
872,57,2020,5,21,JUEVEZ,N
873,57,2020,5,22,VIERNES,N
874,57,2020,5,23,SABADO,N
875,57,2020,5,24,DOMINGO,N
876,57,2020,5,25,LUNES,Y
877,57,2020,5,26,MARTES,N
878,57,2020,5,27,MIERCOLES,N
879,57,2020,5,28,JUEVEZ,N
880,57,2020,5,29,VIERNES,N
881,57,2020,5,30,SABADO,N
882,57,2020,5,31,DOMINGO,N
883,57,2020,6,1,LUNES,N
884,57,2020,6,2,MARTES,N
885,57,2020,6,3,MIERCOLES,N
886,57,2020,6,4,JUEVEZ,N
887,57,2020,6,5,VIERNES,N
888,57,2020,6,6,SABADO,N
889,57,2020,6,7,DOMINGO,N
890,57,2020,6,8,LUNES,N
891,57,2020,6,9,MARTES,N
892,57,2020,6,10,MIERCOLES,N
893,57,2020,6,11,JUEVEZ,N
894,57,2020,6,12,VIERNES,N
895,57,2020,6,13,SABADO,N
896,57,2020,6,14,DOMINGO,N
897,57,2020,6,15,LUNES,Y
898,57,2020,6,16,MARTES,N
899,57,2020,6,17,MIERCOLES,N
900,57,2020,6,18,JUEVEZ,N
901,57,2020,6,19,VIERNES,N
902,57,2020,6,20,SABADO,N
903,57,2020,6,21,DOMINGO,N
904,57,2020,6,22,LUNES,Y
905,57,2020,6,23,MARTES,N
906,57,2020,6,24,MIERCOLES,N
907,57,2020,6,25,JUEVEZ,N
908,57,2020,6,26,VIERNES,N
909,57,2020,6,27,SABADO,N
910,57,2020,6,28,DOMINGO,N
911,57,2020,6,29,LUNES,Y
912,57,2020,6,30,MARTES,N
913,57,2020,7,1,MIERCOLES,N
914,57,2020,7,2,JUEVEZ,N
915,57,2020,7,3,VIERNES,N
916,57,2020,7,4,SABADO,N
917,57,2020,7,5,DOMINGO,N
918,57,2020,7,6,LUNES,N
919,57,2020,7,7,MARTES,N
920,57,2020,7,8,MIERCOLES,N
921,57,2020,7,9,JUEVEZ,N
922,57,2020,7,10,VIERNES,N
923,57,2020,7,11,SABADO,N
924,57,2020,7,12,DOMINGO,N
925,57,2020,7,13,LUNES,N
926,57,2020,7,14,MARTES,N
927,57,2020,7,15,MIERCOLES,N
928,57,2020,7,16,JUEVEZ,N
929,57,2020,7,17,VIERNES,N
930,57,2020,7,18,SABADO,N
931,57,2020,7,19,DOMINGO,N
932,57,2020,7,20,LUNES,Y
933,57,2020,7,21,MARTES,N
934,57,2020,7,22,MIERCOLES,N
935,57,2020,7,23,JUEVEZ,N
936,57,2020,7,24,VIERNES,N
937,57,2020,7,25,SABADO,N
938,57,2020,7,26,DOMINGO,N
939,57,2020,7,27,LUNES,N
940,57,2020,7,28,MARTES,N
941,57,2020,7,29,MIERCOLES,N
942,57,2020,7,30,JUEVEZ,N
943,57,2020,7,31,VIERNES,N
944,57,2020,8,1,SABADO,N
945,57,2020,8,2,DOMINGO,N
946,57,2020,8,3,LUNES,N
947,57,2020,8,4,MARTES,N
948,57,2020,8,5,MIERCOLES,N
949,57,2020,8,6,JUEVEZ,N
950,57,2020,8,7,VIERNES,Y
951,57,2020,8,8,SABADO,N
952,57,2020,8,9,DOMINGO,N
953,57,2020,8,10,LUNES,N
954,57,2020,8,11,MARTES,N
955,57,2020,8,12,MIERCOLES,N
956,57,2020,8,13,JUEVEZ,N
957,57,2020,8,14,VIERNES,N
958,57,2020,8,15,SABADO,N
959,57,2020,8,16,DOMINGO,N
960,57,2020,8,17,LUNES,Y
961,57,2020,8,18,MARTES,N
962,57,2020,8,19,MIERCOLES,N
963,57,2020,8,20,JUEVEZ,N
964,57,2020,8,21,VIERNES,N
965,57,2020,8,22,SABADO,N
966,57,2020,8,23,DOMINGO,N
967,57,2020,8,24,LUNES,N
968,57,2020,8,25,MARTES,N
969,57,2020,8,26,MIERCOLES,N
970,57,2020,8,27,JUEVEZ,N
971,57,2020,8,28,VIERNES,N
972,57,2020,8,29,SABADO,N
973,57,2020,8,30,DOMINGO,N
974,57,2020,8,31,LUNES,N
975,57,2020,9,1,MARTES,N
976,57,2020,9,2,MIERCOLES,N
977,57,2020,9,3,JUEVEZ,N
978,57,2020,9,4,VIERNES,N
979,57,2020,9,5,SABADO,N
980,57,2020,9,6,DOMINGO,N
981,57,2020,9,7,LUNES,N
982,57,2020,9,8,MARTES,N
983,57,2020,9,9,MIERCOLES,N
984,57,2020,9,10,JUEVEZ,N
985,57,2020,9,11,VIERNES,N
986,57,2020,9,12,SABADO,N
987,57,2020,9,13,DOMINGO,N
988,57,2020,9,14,LUNES,N
989,57,2020,9,15,MARTES,N
990,57,2020,9,16,MIERCOLES,N
991,57,2020,9,17,JUEVEZ,N
992,57,2020,9,18,VIERNES,N
993,57,2020,9,19,SABADO,N
994,57,2020,9,20,DOMINGO,N
995,57,2020,9,21,LUNES,N
996,57,2020,9,22,MARTES,N
997,57,2020,9,23,MIERCOLES,N
998,57,2020,9,24,JUEVEZ,N
999,57,2020,9,25,VIERNES,N
1000,57,2020,9,26,SABADO,N
1001,57,2020,9,27,DOMINGO,N
1002,57,2020,9,28,LUNES,N
1003,57,2020,9,29,MARTES,N
1004,57,2020,9,30,MIERCOLES,N
1005,57,2020,10,1,JUEVEZ,N
1006,57,2020,10,2,VIERNES,N
1007,57,2020,10,3,SABADO,N
1008,57,2020,10,4,DOMINGO,N
1009,57,2020,10,5,LUNES,N
1010,57,2020,10,6,MARTES,N
1011,57,2020,10,7,MIERCOLES,N
1012,57,2020,10,8,JUEVEZ,N
1013,57,2020,10,9,VIERNES,N
1014,57,2020,10,10,SABADO,N
1015,57,2020,10,11,DOMINGO,N
1016,57,2020,10,12,LUNES,Y
1017,57,2020,10,13,MARTES,N
1018,57,2020,10,14,MIERCOLES,N
1019,57,2020,10,15,JUEVEZ,N
1020,57,2020,10,16,VIERNES,N
1021,57,2020,10,17,SABADO,N
1022,57,2020,10,18,DOMINGO,N
1023,57,2020,10,19,LUNES,N
1024,57,2020,10,20,MARTES,N
1025,57,2020,10,21,MIERCOLES,N
1026,57,2020,10,22,JUEVEZ,N
1027,57,2020,10,23,VIERNES,N
1028,57,2020,10,24,SABADO,N
1029,57,2020,10,25,DOMINGO,N
1030,57,2020,10,26,LUNES,N
1031,57,2020,10,27,MARTES,N
1032,57,2020,10,28,MIERCOLES,N
1033,57,2020,10,29,JUEVEZ,N
1034,57,2020,10,30,VIERNES,N
1035,57,2020,10,31,SABADO,N
1036,57,2020,11,1,DOMINGO,N
1037,57,2020,11,2,LUNES,Y
1038,57,2020,11,3,MARTES,N
1039,57,2020,11,4,MIERCOLES,N
1040,57,2020,11,5,JUEVEZ,N
1041,57,2020,11,6,VIERNES,N
1042,57,2020,11,7,SABADO,N
1043,57,2020,11,8,DOMINGO,N
1044,57,2020,11,9,LUNES,N
1045,57,2020,11,10,MARTES,N
1046,57,2020,11,11,MIERCOLES,N
1047,57,2020,11,12,JUEVEZ,N
1048,57,2020,11,13,VIERNES,N
1049,57,2020,11,14,SABADO,N
1050,57,2020,11,15,DOMINGO,N
1051,57,2020,11,16,LUNES,Y
1052,57,2020,11,17,MARTES,N
1053,57,2020,11,18,MIERCOLES,N
1054,57,2020,11,19,JUEVEZ,N
1055,57,2020,11,20,VIERNES,N
1056,57,2020,11,21,SABADO,N
1057,57,2020,11,22,DOMINGO,N
1058,57,2020,11,23,LUNES,N
1059,57,2020,11,24,MARTES,N
1060,57,2020,11,25,MIERCOLES,N
1061,57,2020,11,26,JUEVEZ,N
1062,57,2020,11,27,VIERNES,N
1063,57,2020,11,28,SABADO,N
1064,57,2020,11,29,DOMINGO,N
1065,57,2020,11,30,LUNES,N
1066,57,2020,12,1,MARTES,N
1067,57,2020,12,2,MIERCOLES,N
1068,57,2020,12,3,JUEVEZ,N
1069,57,2020,12,4,VIERNES,N
1070,57,2020,12,5,SABADO,N
1071,57,2020,12,6,DOMINGO,N
1072,57,2020,12,7,LUNES,N
1073,57,2020,12,8,MARTES,Y
1074,57,2020,12,9,MIERCOLES,N
1075,57,2020,12,10,JUEVEZ,N
1076,57,2020,12,11,VIERNES,N
1077,57,2020,12,12,SABADO,N
1078,57,2020,12,13,DOMINGO,N
1079,57,2020,12,14,LUNES,N
1080,57,2020,12,15,MARTES,N
1081,57,2020,12,16,MIERCOLES,N
1082,57,2020,12,17,JUEVEZ,N
1083,57,2020,12,18,VIERNES,N
1084,57,2020,12,19,SABADO,N
1085,57,2020,12,20,DOMINGO,N
1086,57,2020,12,21,LUNES,N
1087,57,2020,12,22,MARTES,N
1088,57,2020,12,23,MIERCOLES,N
1089,57,2020,12,24,JUEVEZ,N
1090,57,2020,12,25,VIERNES,Y
1091,57,2020,12,26,SABADO,N
1092,57,2020,12,27,DOMINGO,N
1093,57,2020,12,28,LUNES,N
1094,57,2020,12,29,MARTES,N
1095,57,2020,12,30,MIERCOLES,N
1096,57,2020,12,31,JUEVEZ,N
1097,1,2020,1,1,MIERCOLES,Y
1098,1,2020,1,2,JUEVEZ,N
1099,1,2020,1,3,VIERNES,N
1100,1,2020,1,4,SABADO,N
1101,1,2020,1,5,DOMINGO,N
1102,1,2020,1,6,LUNES,N
1103,1,2020,1,7,MARTES,N
1104,1,2020,1,8,MIERCOLES,N
1105,1,2020,1,9,JUEVEZ,N
1106,1,2020,1,10,VIERNES,N
1107,1,2020,1,11,SABADO,N
1108,1,2020,1,12,DOMINGO,N
1109,1,2020,1,13,LUNES,N
1110,1,2020,1,14,MARTES,N
1111,1,2020,1,15,MIERCOLES,N
1112,1,2020,1,16,JUEVEZ,N
1113,1,2020,1,17,VIERNES,N
1114,1,2020,1,18,SABADO,N
1115,1,2020,1,19,DOMINGO,N
1116,1,2020,1,20,LUNES,N
1117,1,2020,1,21,MARTES,Y
1118,1,2020,1,22,MIERCOLES,N
1119,1,2020,1,23,JUEVEZ,N
1120,1,2020,1,24,VIERNES,N
1121,1,2020,1,25,SABADO,N
1122,1,2020,1,26,DOMINGO,N
1123,1,2020,1,27,LUNES,N
1124,1,2020,1,28,MARTES,N
1125,1,2020,1,29,MIERCOLES,N
1126,1,2020,1,30,JUEVEZ,N
1127,1,2020,1,31,VIERNES,N
1128,1,2020,2,1,SABADO,N
1129,1,2020,2,2,DOMINGO,N
1130,1,2020,2,3,LUNES,N
1131,1,2020,2,4,MARTES,N
1132,1,2020,2,5,MIERCOLES,N
1133,1,2020,2,6,JUEVEZ,N
1134,1,2020,2,7,VIERNES,N
1135,1,2020,2,8,SABADO,N
1136,1,2020,2,9,DOMINGO,N
1137,1,2020,2,10,LUNES,N
1138,1,2020,2,11,MARTES,N
1139,1,2020,2,12,MIERCOLES,N
1140,1,2020,2,13,JUEVEZ,N
1141,1,2020,2,14,VIERNES,N
1142,1,2020,2,15,SABADO,N
1143,1,2020,2,16,DOMINGO,N
1144,1,2020,2,17,LUNES,N
1145,1,2020,2,18,MARTES,Y
1146,1,2020,2,19,MIERCOLES,N
1147,1,2020,2,20,JUEVEZ,N
1148,1,2020,2,21,VIERNES,N
1149,1,2020,2,22,SABADO,N
1150,1,2020,2,23,DOMINGO,N
1151,1,2020,2,24,LUNES,N
1152,1,2020,2,25,MARTES,N
1153,1,2020,2,26,MIERCOLES,N
1154,1,2020,2,27,JUEVEZ,N
1155,1,2020,2,28,VIERNES,N
1156,1,2020,2,29,SÁBADO,N
1157,1,2020,3,1,DOMINGO,N
1158,1,2020,3,2,LUNES,N
1159,1,2020,3,3,MARTES,N
1160,1,2020,3,4,MIERCOLES,N
1161,1,2020,3,5,JUEVEZ,N
1162,1,2020,3,6,VIERNES,N
1163,1,2020,3,7,SABADO,N
1164,1,2020,3,8,DOMINGO,N
1165,1,2020,3,9,LUNES,N
1166,1,2020,3,10,MARTES,N
1167,1,2020,3,11,MIERCOLES,N
1168,1,2020,3,12,JUEVEZ,N
1169,1,2020,3,13,VIERNES,N
1170,1,2020,3,14,SABADO,N
1171,1,2020,3,15,DOMINGO,N
1172,1,2020,3,16,LUNES,N
1173,1,2020,3,17,MARTES,N
1174,1,2020,3,18,MIERCOLES,N
1175,1,2020,3,19,JUEVEZ,N
1176,1,2020,3,20,VIERNES,N
1177,1,2020,3,21,SABADO,N
1178,1,2020,3,22,DOMINGO,N
1179,1,2020,3,23,LUNES,N
1180,1,2020,3,24,MARTES,N
1181,1,2020,3,25,MIERCOLES,N
1182,1,2020,3,26,JUEVEZ,N
1183,1,2020,3,27,VIERNES,N
1184,1,2020,3,28,SABADO,N
1185,1,2020,3,29,DOMINGO,N
1186,1,2020,3,30,LUNES,N
1187,1,2020,3,31,MARTES,N
1188,1,2020,4,1,MIERCOLES,N
1189,1,2020,4,2,JUEVEZ,N
1190,1,2020,4,3,VIERNES,N
1191,1,2020,4,4,SABADO,N
1192,1,2020,4,5,DOMINGO,N
1193,1,2020,4,6,LUNES,N
1194,1,2020,4,7,MARTES,N
1195,1,2020,4,8,MIERCOLES,N
1196,1,2020,4,9,JUEVEZ,N
1197,1,2020,4,10,VIERNES,N
1198,1,2020,4,11,SABADO,N
1199,1,2020,4,12,DOMINGO,N
1200,1,2020,4,13,LUNES,N
1201,1,2020,4,14,MARTES,N
1202,1,2020,4,15,MIERCOLES,N
1203,1,2020,4,16,JUEVEZ,N
1204,1,2020,4,17,VIERNES,N
1205,1,2020,4,18,SABADO,N
1206,1,2020,4,19,DOMINGO,N
1207,1,2020,4,20,LUNES,N
1208,1,2020,4,21,MARTES,N
1209,1,2020,4,22,MIERCOLES,N
1210,1,2020,4,23,JUEVEZ,N
1211,1,2020,4,24,VIERNES,N
1212,1,2020,4,25,SABADO,N
1213,1,2020,4,26,DOMINGO,N
1214,1,2020,4,27,LUNES,N
1215,1,2020,4,28,MARTES,N
1216,1,2020,4,29,MIERCOLES,N
1217,1,2020,4,30,JUEVEZ,N
1218,1,2020,5,1,VIERNES,N
1219,1,2020,5,2,SABADO,N
1220,1,2020,5,3,DOMINGO,N
1221,1,2020,5,4,LUNES,N
1222,1,2020,5,5,MARTES,N
1223,1,2020,5,6,MIERCOLES,N
1224,1,2020,5,7,JUEVEZ,N
1225,1,2020,5,8,VIERNES,N
1226,1,2020,5,9,SABADO,N
1227,1,2020,5,10,DOMINGO,N
1228,1,2020,5,11,LUNES,N
1229,1,2020,5,12,MARTES,N
1230,1,2020,5,13,MIERCOLES,N
1231,1,2020,5,14,JUEVEZ,N
1232,1,2020,5,15,VIERNES,N
1233,1,2020,5,16,SABADO,N
1234,1,2020,5,17,DOMINGO,N
1235,1,2020,5,18,LUNES,N
1236,1,2020,5,19,MARTES,N
1237,1,2020,5,20,MIERCOLES,N
1238,1,2020,5,21,JUEVEZ,N
1239,1,2020,5,22,VIERNES,N
1240,1,2020,5,23,SABADO,N
1241,1,2020,5,24,DOMINGO,N
1242,1,2020,5,25,LUNES,N
1243,1,2020,5,26,MARTES,N
1244,1,2020,5,27,MIERCOLES,Y
1245,1,2020,5,28,JUEVEZ,N
1246,1,2020,5,29,VIERNES,N
1247,1,2020,5,30,SABADO,N
1248,1,2020,5,31,DOMINGO,N
1249,1,2020,6,1,LUNES,N
1250,1,2020,6,2,MARTES,N
1251,1,2020,6,3,MIERCOLES,N
1252,1,2020,6,4,JUEVEZ,N
1253,1,2020,6,5,VIERNES,N
1254,1,2020,6,6,SABADO,N
1255,1,2020,6,7,DOMINGO,N
1256,1,2020,6,8,LUNES,N
1257,1,2020,6,9,MARTES,N
1258,1,2020,6,10,MIERCOLES,N
1259,1,2020,6,11,JUEVEZ,N
1260,1,2020,6,12,VIERNES,N
1261,1,2020,6,13,SABADO,N
1262,1,2020,6,14,DOMINGO,N
1263,1,2020,6,15,LUNES,N
1264,1,2020,6,16,MARTES,N
1265,1,2020,6,17,MIERCOLES,N
1266,1,2020,6,18,JUEVEZ,N
1267,1,2020,6,19,VIERNES,N
1268,1,2020,6,20,SABADO,N
1269,1,2020,6,21,DOMINGO,N
1270,1,2020,6,22,LUNES,N
1271,1,2020,6,23,MARTES,N
1272,1,2020,6,24,MIERCOLES,N
1273,1,2020,6,25,JUEVEZ,N
1274,1,2020,6,26,VIERNES,N
1275,1,2020,6,27,SABADO,N
1276,1,2020,6,28,DOMINGO,N
1277,1,2020,6,29,LUNES,N
1278,1,2020,6,30,MARTES,N
1279,1,2020,7,1,MIERCOLES,N
1280,1,2020,7,2,JUEVEZ,N
1281,1,2020,7,3,VIERNES,N
1282,1,2020,7,4,SABADO,Y
1283,1,2020,7,5,DOMINGO,N
1284,1,2020,7,6,LUNES,N
1285,1,2020,7,7,MARTES,N
1286,1,2020,7,8,MIERCOLES,N
1287,1,2020,7,9,JUEVEZ,N
1288,1,2020,7,10,VIERNES,N
1289,1,2020,7,11,SABADO,N
1290,1,2020,7,12,DOMINGO,N
1291,1,2020,7,13,LUNES,N
1292,1,2020,7,14,MARTES,N
1293,1,2020,7,15,MIERCOLES,N
1294,1,2020,7,16,JUEVEZ,N
1295,1,2020,7,17,VIERNES,N
1296,1,2020,7,18,SABADO,N
1297,1,2020,7,19,DOMINGO,N
1298,1,2020,7,20,LUNES,N
1299,1,2020,7,21,MARTES,N
1300,1,2020,7,22,MIERCOLES,N
1301,1,2020,7,23,JUEVEZ,N
1302,1,2020,7,24,VIERNES,N
1303,1,2020,7,25,SABADO,N
1304,1,2020,7,26,DOMINGO,N
1305,1,2020,7,27,LUNES,N
1306,1,2020,7,28,MARTES,N
1307,1,2020,7,29,MIERCOLES,N
1308,1,2020,7,30,JUEVEZ,N
1309,1,2020,7,31,VIERNES,N
1310,1,2020,8,1,SABADO,N
1311,1,2020,8,2,DOMINGO,N
1312,1,2020,8,3,LUNES,N
1313,1,2020,8,4,MARTES,N
1314,1,2020,8,5,MIERCOLES,N
1315,1,2020,8,6,JUEVEZ,N
1316,1,2020,8,7,VIERNES,N
1317,1,2020,8,8,SABADO,N
1318,1,2020,8,9,DOMINGO,N
1319,1,2020,8,10,LUNES,N
1320,1,2020,8,11,MARTES,N
1321,1,2020,8,12,MIERCOLES,N
1322,1,2020,8,13,JUEVEZ,N
1323,1,2020,8,14,VIERNES,N
1324,1,2020,8,15,SABADO,N
1325,1,2020,8,16,DOMINGO,N
1326,1,2020,8,17,LUNES,N
1327,1,2020,8,18,MARTES,N
1328,1,2020,8,19,MIERCOLES,N
1329,1,2020,8,20,JUEVEZ,N
1330,1,2020,8,21,VIERNES,N
1331,1,2020,8,22,SABADO,N
1332,1,2020,8,23,DOMINGO,N
1333,1,2020,8,24,LUNES,N
1334,1,2020,8,25,MARTES,N
1335,1,2020,8,26,MIERCOLES,N
1336,1,2020,8,27,JUEVEZ,N
1337,1,2020,8,28,VIERNES,N
1338,1,2020,8,29,SABADO,N
1339,1,2020,8,30,DOMINGO,N
1340,1,2020,8,31,LUNES,N
1341,1,2020,9,1,MARTES,N
1342,1,2020,9,2,MIERCOLES,Y
1343,1,2020,9,3,JUEVEZ,N
1344,1,2020,9,4,VIERNES,N
1345,1,2020,9,5,SABADO,N
1346,1,2020,9,6,DOMINGO,N
1347,1,2020,9,7,LUNES,N
1348,1,2020,9,8,MARTES,N
1349,1,2020,9,9,MIERCOLES,N
1350,1,2020,9,10,JUEVEZ,N
1351,1,2020,9,11,VIERNES,N
1352,1,2020,9,12,SABADO,N
1353,1,2020,9,13,DOMINGO,N
1354,1,2020,9,14,LUNES,N
1355,1,2020,9,15,MARTES,N
1356,1,2020,9,16,MIERCOLES,N
1357,1,2020,9,17,JUEVEZ,N
1358,1,2020,9,18,VIERNES,N
1359,1,2020,9,19,SABADO,N
1360,1,2020,9,20,DOMINGO,N
1361,1,2020,9,21,LUNES,N
1362,1,2020,9,22,MARTES,N
1363,1,2020,9,23,MIERCOLES,N
1364,1,2020,9,24,JUEVEZ,N
1365,1,2020,9,25,VIERNES,N
1366,1,2020,9,26,SABADO,N
1367,1,2020,9,27,DOMINGO,N
1368,1,2020,9,28,LUNES,N
1369,1,2020,9,29,MARTES,N
1370,1,2020,9,30,MIERCOLES,N
1371,1,2020,10,1,JUEVEZ,N
1372,1,2020,10,2,VIERNES,N
1373,1,2020,10,3,SABADO,N
1374,1,2020,10,4,DOMINGO,N
1375,1,2020,10,5,LUNES,N
1376,1,2020,10,6,MARTES,N
1377,1,2020,10,7,MIERCOLES,N
1378,1,2020,10,8,JUEVEZ,N
1379,1,2020,10,9,VIERNES,N
1380,1,2020,10,10,SABADO,N
1381,1,2020,10,11,DOMINGO,N
1382,1,2020,10,12,LUNES,N
1383,1,2020,10,13,MARTES,N
1384,1,2020,10,14,MIERCOLES,Y
1385,1,2020,10,15,JUEVEZ,N
1386,1,2020,10,16,VIERNES,N
1387,1,2020,10,17,SABADO,N
1388,1,2020,10,18,DOMINGO,N
1389,1,2020,10,19,LUNES,N
1390,1,2020,10,20,MARTES,N
1391,1,2020,10,21,MIERCOLES,N
1392,1,2020,10,22,JUEVEZ,N
1393,1,2020,10,23,VIERNES,N
1394,1,2020,10,24,SABADO,N
1395,1,2020,10,25,DOMINGO,N
1396,1,2020,10,26,LUNES,N
1397,1,2020,10,27,MARTES,N
1398,1,2020,10,28,MIERCOLES,N
1399,1,2020,10,29,JUEVEZ,N
1400,1,2020,10,30,VIERNES,N
1401,1,2020,10,31,SABADO,N
1402,1,2020,11,1,DOMINGO,N
1403,1,2020,11,2,LUNES,N
1404,1,2020,11,3,MARTES,N
1405,1,2020,11,4,MIERCOLES,N
1406,1,2020,11,5,JUEVEZ,N
1407,1,2020,11,6,VIERNES,N
1408,1,2020,11,7,SABADO,N
1409,1,2020,11,8,DOMINGO,N
1410,1,2020,11,9,LUNES,N
1411,1,2020,11,10,MARTES,N
1412,1,2020,11,11,MIERCOLES,Y
1413,1,2020,11,12,JUEVEZ,N
1414,1,2020,11,13,VIERNES,N
1415,1,2020,11,14,SABADO,N
1416,1,2020,11,15,DOMINGO,N
1417,1,2020,11,16,LUNES,N
1418,1,2020,11,17,MARTES,N
1419,1,2020,11,18,MIERCOLES,N
1420,1,2020,11,19,JUEVEZ,N
1421,1,2020,11,20,VIERNES,N
1422,1,2020,11,21,SABADO,N
1423,1,2020,11,22,DOMINGO,N
1424,1,2020,11,23,LUNES,N
1425,1,2020,11,24,MARTES,N
1426,1,2020,11,25,MIERCOLES,N
1427,1,2020,11,26,JUEVEZ,N
1428,1,2020,11,27,VIERNES,N
1429,1,2020,11,28,SABADO,Y
1430,1,2020,11,29,DOMINGO,N
1431,1,2020,11,30,LUNES,N
1432,1,2020,12,1,MARTES,N
1433,1,2020,12,2,MIERCOLES,N
1434,1,2020,12,3,JUEVEZ,N
1435,1,2020,12,4,VIERNES,N
1436,1,2020,12,5,SABADO,N
1437,1,2020,12,6,DOMINGO,N
1438,1,2020,12,7,LUNES,N
1439,1,2020,12,8,MARTES,N
1440,1,2020,12,9,MIERCOLES,N
1441,1,2020,12,10,JUEVEZ,N
1442,1,2020,12,11,VIERNES,N
1443,1,2020,12,12,SABADO,N
1444,1,2020,12,13,DOMINGO,N
1445,1,2020,12,14,LUNES,N
1446,1,2020,12,15,MARTES,N
1447,1,2020,12,16,MIERCOLES,N
1448,1,2020,12,17,JUEVEZ,N
1449,1,2020,12,18,VIERNES,N
1450,1,2020,12,19,SABADO,N
1451,1,2020,12,20,DOMINGO,N
1452,1,2020,12,21,LUNES,N
1453,1,2020,12,22,MARTES,N
1454,1,2020,12,23,MIERCOLES,N
1455,1,2020,12,24,JUEVEZ,N
1456,1,2020,12,25,VIERNES,Y
1457,1,2020,12,26,SABADO,N
1458,1,2020,12,27,DOMINGO,N
1459,1,2020,12,28,LUNES,N
1460,1,2020,12,29,MARTES,N
1461,1,2020,12,30,MIERCOLES,N
1462,1,2020,12,31,JUEVEZ,N
1463,1,2021,1,1,VIERNES,Y
1464,1,2021,1,2,SABADO,N
1465,1,2021,1,3,DOMINGO,N
1466,1,2021,1,4,LUNES,N
1467,1,2021,1,5,MARTES,N
1468,1,2021,1,6,MIERCOLES,N
1469,1,2021,1,7,JUEVEZ,N
1470,1,2021,1,8,VIERNES,N
1471,1,2021,1,9,SABADO,N
1472,1,2021,1,10,DOMINGO,N
1473,1,2021,1,11,LUNES,N
1474,1,2021,1,12,MARTES,N
1475,1,2021,1,13,MIERCOLES,N
1476,1,2021,1,14,JUEVEZ,N
1477,1,2021,1,15,VIERNES,N
1478,1,2021,1,16,SABADO,N
1479,1,2021,1,17,DOMINGO,N
1480,1,2021,1,18,LUNES,N
1481,1,2021,1,19,MARTES,N
1482,1,2021,1,20,MIERCOLES,N
1483,1,2021,1,21,JUEVEZ,Y
1484,1,2021,1,22,VIERNES,N
1485,1,2021,1,23,SABADO,N
1486,1,2021,1,24,DOMINGO,N
1487,1,2021,1,25,LUNES,N
1488,1,2021,1,26,MARTES,N
1489,1,2021,1,27,MIERCOLES,N
1490,1,2021,1,28,JUEVEZ,N
1491,1,2021,1,29,VIERNES,N
1492,1,2021,1,30,SABADO,N
1493,1,2021,1,31,DOMINGO,N
1494,1,2021,2,1,LUNES,N
1495,1,2021,2,2,MARTES,N
1496,1,2021,2,3,MIERCOLES,N
1497,1,2021,2,4,JUEVEZ,N
1498,1,2021,2,5,VIERNES,N
1499,1,2021,2,6,SABADO,N
1500,1,2021,2,7,DOMINGO,N
1501,1,2021,2,8,LUNES,N
1502,1,2021,2,9,MARTES,N
1503,1,2021,2,10,MIERCOLES,N
1504,1,2021,2,11,JUEVEZ,N
1505,1,2021,2,12,VIERNES,N
1506,1,2021,2,13,SABADO,N
1507,1,2021,2,14,DOMINGO,N
1508,1,2021,2,15,LUNES,N
1509,1,2021,2,16,MARTES,N
1510,1,2021,2,17,MIERCOLES,N
1511,1,2021,2,18,JUEVEZ,Y
1512,1,2021,2,19,VIERNES,N
1513,1,2021,2,20,SABADO,N
1514,1,2021,2,21,DOMINGO,N
1515,1,2021,2,22,LUNES,N
1516,1,2021,2,23,MARTES,N
1517,1,2021,2,24,MIERCOLES,N
1518,1,2021,2,25,JUEVEZ,N
1519,1,2021,2,26,VIERNES,N
1520,1,2021,2,27,SABADO,N
1521,1,2021,2,28,DOMINGO,N
1522,1,2021,3,1,LUNES,N
1523,1,2021,3,2,MARTES,N
1524,1,2021,3,3,MIERCOLES,N
1525,1,2021,3,4,JUEVEZ,N
1526,1,2021,3,5,VIERNES,N
1527,1,2021,3,6,SABADO,N
1528,1,2021,3,7,DOMINGO,N
1529,1,2021,3,8,LUNES,N
1530,1,2021,3,9,MARTES,N
1531,1,2021,3,10,MIERCOLES,N
1532,1,2021,3,11,JUEVEZ,N
1533,1,2021,3,12,VIERNES,N
1534,1,2021,3,13,SABADO,N
1535,1,2021,3,14,DOMINGO,N
1536,1,2021,3,15,LUNES,N
1537,1,2021,3,16,MARTES,N
1538,1,2021,3,17,MIERCOLES,N
1539,1,2021,3,18,JUEVEZ,N
1540,1,2021,3,19,VIERNES,N
1541,1,2021,3,20,SABADO,N
1542,1,2021,3,21,DOMINGO,N
1543,1,2021,3,22,LUNES,N
1544,1,2021,3,23,MARTES,N
1545,1,2021,3,24,MIERCOLES,N
1546,1,2021,3,25,JUEVEZ,N
1547,1,2021,3,26,VIERNES,N
1548,1,2021,3,27,SABADO,N
1549,1,2021,3,28,DOMINGO,N
1550,1,2021,3,29,LUNES,N
1551,1,2021,3,30,MARTES,N
1552,1,2021,3,31,MIERCOLES,N
1553,1,2021,4,1,JUEVEZ,N
1554,1,2021,4,2,VIERNES,N
1555,1,2021,4,3,SABADO,N
1556,1,2021,4,4,DOMINGO,N
1557,1,2021,4,5,LUNES,N
1558,1,2021,4,6,MARTES,N
1559,1,2021,4,7,MIERCOLES,N
1560,1,2021,4,8,JUEVEZ,N
1561,1,2021,4,9,VIERNES,N
1562,1,2021,4,10,SABADO,N
1563,1,2021,4,11,DOMINGO,N
1564,1,2021,4,12,LUNES,N
1565,1,2021,4,13,MARTES,N
1566,1,2021,4,14,MIERCOLES,N
1567,1,2021,4,15,JUEVEZ,N
1568,1,2021,4,16,VIERNES,N
1569,1,2021,4,17,SABADO,N
1570,1,2021,4,18,DOMINGO,N
1571,1,2021,4,19,LUNES,N
1572,1,2021,4,20,MARTES,N
1573,1,2021,4,21,MIERCOLES,N
1574,1,2021,4,22,JUEVEZ,N
1575,1,2021,4,23,VIERNES,N
1576,1,2021,4,24,SABADO,N
1577,1,2021,4,25,DOMINGO,N
1578,1,2021,4,26,LUNES,N
1579,1,2021,4,27,MARTES,N
1580,1,2021,4,28,MIERCOLES,N
1581,1,2021,4,29,JUEVEZ,N
1582,1,2021,4,30,VIERNES,N
1583,1,2021,5,1,SABADO,N
1584,1,2021,5,2,DOMINGO,N
1585,1,2021,5,3,LUNES,N
1586,1,2021,5,4,MARTES,N
1587,1,2021,5,5,MIERCOLES,N
1588,1,2021,5,6,JUEVEZ,N
1589,1,2021,5,7,VIERNES,N
1590,1,2021,5,8,SABADO,N
1591,1,2021,5,9,DOMINGO,N
1592,1,2021,5,10,LUNES,N
1593,1,2021,5,11,MARTES,N
1594,1,2021,5,12,MIERCOLES,N
1595,1,2021,5,13,JUEVEZ,N
1596,1,2021,5,14,VIERNES,N
1597,1,2021,5,15,SABADO,N
1598,1,2021,5,16,DOMINGO,N
1599,1,2021,5,17,LUNES,N
1600,1,2021,5,18,MARTES,N
1601,1,2021,5,19,MIERCOLES,N
1602,1,2021,5,20,JUEVEZ,N
1603,1,2021,5,21,VIERNES,N
1604,1,2021,5,22,SABADO,N
1605,1,2021,5,23,DOMINGO,N
1606,1,2021,5,24,LUNES,N
1607,1,2021,5,25,MARTES,N
1608,1,2021,5,26,MIERCOLES,N
1609,1,2021,5,27,JUEVEZ,N
1610,1,2021,5,28,VIERNES,N
1611,1,2021,5,29,SABADO,N
1612,1,2021,5,30,DOMINGO,N
1613,1,2021,5,31,LUNES,N
1614,1,2021,6,1,MARTES,N
1615,1,2021,6,2,MIERCOLES,N
1616,1,2021,6,3,JUEVEZ,N
1617,1,2021,6,4,VIERNES,N
1618,1,2021,6,5,SABADO,N
1619,1,2021,6,6,DOMINGO,N
1620,1,2021,6,7,LUNES,N
1621,1,2021,6,8,MARTES,N
1622,1,2021,6,9,MIERCOLES,N
1623,1,2021,6,10,JUEVEZ,N
1624,1,2021,6,11,VIERNES,N
1625,1,2021,6,12,SABADO,N
1626,1,2021,6,13,DOMINGO,N
1627,1,2021,6,14,LUNES,N
1628,1,2021,6,15,MARTES,N
1629,1,2021,6,16,MIERCOLES,N
1630,1,2021,6,17,JUEVEZ,N
1631,1,2021,6,18,VIERNES,N
1632,1,2021,6,19,SABADO,N
1633,1,2021,6,20,DOMINGO,N
1634,1,2021,6,21,LUNES,N
1635,1,2021,6,22,MARTES,N
1636,1,2021,6,23,MIERCOLES,N
1637,1,2021,6,24,JUEVEZ,N
1638,1,2021,6,25,VIERNES,N
1639,1,2021,6,26,SABADO,N
1640,1,2021,6,27,DOMINGO,N
1641,1,2021,6,28,LUNES,N
1642,1,2021,6,29,MARTES,N
1643,1,2021,6,30,MIERCOLES,N
1644,1,2021,7,1,JUEVEZ,N
1645,1,2021,7,2,VIERNES,N
1646,1,2021,7,3,SABADO,N
1647,1,2021,7,4,DOMINGO,Y
1648,1,2021,7,5,LUNES,N
1649,1,2021,7,6,MARTES,N
1650,1,2021,7,7,MIERCOLES,N
1651,1,2021,7,8,JUEVEZ,N
1652,1,2021,7,9,VIERNES,N
1653,1,2021,7,10,SABADO,N
1654,1,2021,7,11,DOMINGO,N
1655,1,2021,7,12,LUNES,N
1656,1,2021,7,13,MARTES,N
1657,1,2021,7,14,MIERCOLES,N
1658,1,2021,7,15,JUEVEZ,N
1659,1,2021,7,16,VIERNES,N
1660,1,2021,7,17,SABADO,N
1661,1,2021,7,18,DOMINGO,N
1662,1,2021,7,19,LUNES,N
1663,1,2021,7,20,MARTES,N
1664,1,2021,7,21,MIERCOLES,N
1665,1,2021,7,22,JUEVEZ,N
1666,1,2021,7,23,VIERNES,N
1667,1,2021,7,24,SABADO,N
1668,1,2021,7,25,DOMINGO,N
1669,1,2021,7,26,LUNES,N
1670,1,2021,7,27,MARTES,N
1671,1,2021,7,28,MIERCOLES,N
1672,1,2021,7,29,JUEVEZ,N
1673,1,2021,7,30,VIERNES,N
1674,1,2021,7,31,SABADO,N
1675,1,2021,8,1,DOMINGO,N
1676,1,2021,8,2,LUNES,N
1677,1,2021,8,3,MARTES,N
1678,1,2021,8,4,MIERCOLES,N
1679,1,2021,8,5,JUEVEZ,N
1680,1,2021,8,6,VIERNES,N
1681,1,2021,8,7,SABADO,N
1682,1,2021,8,8,DOMINGO,N
1683,1,2021,8,9,LUNES,N
1684,1,2021,8,10,MARTES,N
1685,1,2021,8,11,MIERCOLES,N
1686,1,2021,8,12,JUEVEZ,N
1687,1,2021,8,13,VIERNES,N
1688,1,2021,8,14,SABADO,N
1689,1,2021,8,15,DOMINGO,N
1690,1,2021,8,16,LUNES,N
1691,1,2021,8,17,MARTES,N
1692,1,2021,8,18,MIERCOLES,N
1693,1,2021,8,19,JUEVEZ,N
1694,1,2021,8,20,VIERNES,N
1695,1,2021,8,21,SABADO,N
1696,1,2021,8,22,DOMINGO,N
1697,1,2021,8,23,LUNES,N
1698,1,2021,8,24,MARTES,N
1699,1,2021,8,25,MIERCOLES,N
1700,1,2021,8,26,JUEVEZ,N
1701,1,2021,8,27,VIERNES,N
1702,1,2021,8,28,SABADO,N
1703,1,2021,8,29,DOMINGO,N
1704,1,2021,8,30,LUNES,N
1705,1,2021,8,31,MARTES,N
1706,1,2021,9,1,MIERCOLES,N
1707,1,2021,9,2,JUEVEZ,Y
1708,1,2021,9,3,VIERNES,N
1709,1,2021,9,4,SABADO,N
1710,1,2021,9,5,DOMINGO,N
1711,1,2021,9,6,LUNES,N
1712,1,2021,9,7,MARTES,N
1713,1,2021,9,8,MIERCOLES,N
1714,1,2021,9,9,JUEVEZ,N
1715,1,2021,9,10,VIERNES,N
1716,1,2021,9,11,SABADO,N
1717,1,2021,9,12,DOMINGO,N
1718,1,2021,9,13,LUNES,N
1719,1,2021,9,14,MARTES,N
1720,1,2021,9,15,MIERCOLES,N
1721,1,2021,9,16,JUEVEZ,N
1722,1,2021,9,17,VIERNES,N
1723,1,2021,9,18,SABADO,N
1724,1,2021,9,19,DOMINGO,N
1725,1,2021,9,20,LUNES,N
1726,1,2021,9,21,MARTES,N
1727,1,2021,9,22,MIERCOLES,N
1728,1,2021,9,23,JUEVEZ,N
1729,1,2021,9,24,VIERNES,N
1730,1,2021,9,25,SABADO,N
1731,1,2021,9,26,DOMINGO,N
1732,1,2021,9,27,LUNES,N
1733,1,2021,9,28,MARTES,N
1734,1,2021,9,29,MIERCOLES,N
1735,1,2021,9,30,JUEVEZ,N
1736,1,2021,10,1,VIERNES,N
1737,1,2021,10,2,SABADO,N
1738,1,2021,10,3,DOMINGO,N
1739,1,2021,10,4,LUNES,N
1740,1,2021,10,5,MARTES,N
1741,1,2021,10,6,MIERCOLES,N
1742,1,2021,10,7,JUEVEZ,N
1743,1,2021,10,8,VIERNES,N
1744,1,2021,10,9,SABADO,N
1745,1,2021,10,10,DOMINGO,N
1746,1,2021,10,11,LUNES,N
1747,1,2021,10,12,MARTES,N
1748,1,2021,10,13,MIERCOLES,N
1749,1,2021,10,14,JUEVEZ,Y
1750,1,2021,10,15,VIERNES,N
1751,1,2021,10,16,SABADO,N
1752,1,2021,10,17,DOMINGO,N
1753,1,2021,10,18,LUNES,N
1754,1,2021,10,19,MARTES,N
1755,1,2021,10,20,MIERCOLES,N
1756,1,2021,10,21,JUEVEZ,N
1757,1,2021,10,22,VIERNES,N
1758,1,2021,10,23,SABADO,N
1759,1,2021,10,24,DOMINGO,N
1760,1,2021,10,25,LUNES,N
1761,1,2021,10,26,MARTES,N
1762,1,2021,10,27,MIERCOLES,N
1763,1,2021,10,28,JUEVEZ,N
1764,1,2021,10,29,VIERNES,N
1765,1,2021,10,30,SABADO,N
1766,1,2021,10,31,DOMINGO,N
1767,1,2021,11,1,LUNES,N
1768,1,2021,11,2,MARTES,N
1769,1,2021,11,3,MIERCOLES,N
1770,1,2021,11,4,JUEVEZ,N
1771,1,2021,11,5,VIERNES,N
1772,1,2021,11,6,SABADO,N
1773,1,2021,11,7,DOMINGO,N
1774,1,2021,11,8,LUNES,N
1775,1,2021,11,9,MARTES,N
1776,1,2021,11,10,MIERCOLES,N
1777,1,2021,11,11,JUEVEZ,Y
1778,1,2021,11,12,VIERNES,N
1779,1,2021,11,13,SABADO,N
1780,1,2021,11,14,DOMINGO,N
1781,1,2021,11,15,LUNES,N
1782,1,2021,11,16,MARTES,N
1783,1,2021,11,17,MIERCOLES,N
1784,1,2021,11,18,JUEVEZ,N
1785,1,2021,11,19,VIERNES,N
1786,1,2021,11,20,SABADO,N
1787,1,2021,11,21,DOMINGO,N
1788,1,2021,11,22,LUNES,N
1789,1,2021,11,23,MARTES,N
1790,1,2021,11,24,MIERCOLES,N
1791,1,2021,11,25,JUEVEZ,N
1792,1,2021,11,26,VIERNES,N
1793,1,2021,11,27,SABADO,N
1794,1,2021,11,28,DOMINGO,Y
1795,1,2021,11,29,LUNES,N
1796,1,2021,11,30,MARTES,N
1797,1,2021,12,1,MIERCOLES,N
1798,1,2021,12,2,JUEVEZ,N
1799,1,2021,12,3,VIERNES,N
1800,1,2021,12,4,SABADO,N
1801,1,2021,12,5,DOMINGO,N
1802,1,2021,12,6,LUNES,N
1803,1,2021,12,7,MARTES,N
1804,1,2021,12,8,MIERCOLES,N
1805,1,2021,12,9,JUEVEZ,N
1806,1,2021,12,10,VIERNES,N
1807,1,2021,12,11,SABADO,N
1808,1,2021,12,12,DOMINGO,N
1809,1,2021,12,13,LUNES,N
1810,1,2021,12,14,MARTES,N
1811,1,2021,12,15,MIERCOLES,N
1812,1,2021,12,16,JUEVEZ,N
1813,1,2021,12,17,VIERNES,N
1814,1,2021,12,18,SABADO,N
1815,1,2021,12,19,DOMINGO,N
1816,1,2021,12,20,LUNES,N
1817,1,2021,12,21,MARTES,N
1818,1,2021,12,22,MIERCOLES,N
1819,1,2021,12,23,JUEVEZ,N
1820,1,2021,12,24,VIERNES,N
1821,1,2021,12,25,SABADO,Y
1822,1,2021,12,26,DOMINGO,N
1823,1,2021,12,27,LUNES,N
1824,1,2021,12,28,MARTES,N
1825,1,2021,12,29,MIERCOLES,N
1826,1,2021,12,30,JUEVEZ,N
1827,1,2021,12,31,VIERNES,N
1828,57,2021,1,1,VIERNES,Y
1829,57,2021,1,2,SABADO,N
1830,57,2021,1,3,DOMINGO,N
1831,57,2021,1,4,LUNES,N
1832,57,2021,1,5,MARTES,N
1833,57,2021,1,6,MIERCOLES,N
1834,57,2021,1,7,JUEVEZ,N
1835,57,2021,1,8,VIERNES,N
1836,57,2021,1,9,SABADO,N
1837,57,2021,1,10,DOMINGO,N
1838,57,2021,1,11,LUNES,Y
1839,57,2021,1,12,MARTES,N
1840,57,2021,1,13,MIERCOLES,N
1841,57,2021,1,14,JUEVEZ,N
1842,57,2021,1,15,VIERNES,N
1843,57,2021,1,16,SABADO,N
1844,57,2021,1,17,DOMINGO,N
1845,57,2021,1,18,LUNES,N
1846,57,2021,1,19,MARTES,N
1847,57,2021,1,20,MIERCOLES,N
1848,57,2021,1,21,JUEVEZ,N
1849,57,2021,1,22,VIERNES,N
1850,57,2021,1,23,SABADO,N
1851,57,2021,1,24,DOMINGO,N
1852,57,2021,1,25,LUNES,N
1853,57,2021,1,26,MARTES,N
1854,57,2021,1,27,MIERCOLES,N
1855,57,2021,1,28,JUEVEZ,N
1856,57,2021,1,29,VIERNES,N
1857,57,2021,1,30,SABADO,N
1858,57,2021,1,31,DOMINGO,N
1859,57,2021,2,1,LUNES,N
1860,57,2021,2,2,MARTES,N
1861,57,2021,2,3,MIERCOLES,N
1862,57,2021,2,4,JUEVEZ,N
1863,57,2021,2,5,VIERNES,N
1864,57,2021,2,6,SABADO,N
1865,57,2021,2,7,DOMINGO,N
1866,57,2021,2,8,LUNES,N
1867,57,2021,2,9,MARTES,N
1868,57,2021,2,10,MIERCOLES,N
1869,57,2021,2,11,JUEVEZ,N
1870,57,2021,2,12,VIERNES,N
1871,57,2021,2,13,SABADO,N
1872,57,2021,2,14,DOMINGO,N
1873,57,2021,2,15,LUNES,N
1874,57,2021,2,16,MARTES,N
1875,57,2021,2,17,MIERCOLES,N
1876,57,2021,2,18,JUEVEZ,N
1877,57,2021,2,19,VIERNES,N
1878,57,2021,2,20,SABADO,N
1879,57,2021,2,21,DOMINGO,N
1880,57,2021,2,22,LUNES,N
1881,57,2021,2,23,MARTES,N
1882,57,2021,2,24,MIERCOLES,N
1883,57,2021,2,25,JUEVEZ,N
1884,57,2021,2,26,VIERNES,N
1885,57,2021,2,27,SABADO,N
1886,57,2021,2,28,DOMINGO,N
1887,57,2021,3,1,LUNES,N
1888,57,2021,3,2,MARTES,N
1889,57,2021,3,3,MIERCOLES,N
1890,57,2021,3,4,JUEVEZ,N
1891,57,2021,3,5,VIERNES,N
1892,57,2021,3,6,SABADO,N
1893,57,2021,3,7,DOMINGO,N
1894,57,2021,3,8,LUNES,N
1895,57,2021,3,9,MARTES,N
1896,57,2021,3,10,MIERCOLES,N
1897,57,2021,3,11,JUEVEZ,N
1898,57,2021,3,12,VIERNES,N
1899,57,2021,3,13,SABADO,N
1900,57,2021,3,14,DOMINGO,N
1901,57,2021,3,15,LUNES,N
1902,57,2021,3,16,MARTES,N
1903,57,2021,3,17,MIERCOLES,N
1904,57,2021,3,18,JUEVEZ,N
1905,57,2021,3,19,VIERNES,N
1906,57,2021,3,20,SABADO,N
1907,57,2021,3,21,DOMINGO,N
1908,57,2021,3,22,LUNES,Y
1909,57,2021,3,23,MARTES,N
1910,57,2021,3,24,MIERCOLES,N
1911,57,2021,3,25,JUEVEZ,N
1912,57,2021,3,26,VIERNES,N
1913,57,2021,3,27,SABADO,N
1914,57,2021,3,28,DOMINGO,N
1915,57,2021,3,29,LUNES,N
1916,57,2021,3,30,MARTES,N
1917,57,2021,3,31,MIERCOLES,N
1918,57,2021,4,1,JUEVEZ,Y
1919,57,2021,4,2,VIERNES,Y
1920,57,2021,4,3,SABADO,N
1921,57,2021,4,4,DOMINGO,N
1922,57,2021,4,5,LUNES,N
1923,57,2021,4,6,MARTES,N
1924,57,2021,4,7,MIERCOLES,N
1925,57,2021,4,8,JUEVEZ,N
1926,57,2021,4,9,VIERNES,N
1927,57,2021,4,10,SABADO,N
1928,57,2021,4,11,DOMINGO,N
1929,57,2021,4,12,LUNES,N
1930,57,2021,4,13,MARTES,N
1931,57,2021,4,14,MIERCOLES,N
1932,57,2021,4,15,JUEVEZ,N
1933,57,2021,4,16,VIERNES,N
1934,57,2021,4,17,SABADO,N
1935,57,2021,4,18,DOMINGO,N
1936,57,2021,4,19,LUNES,N
1937,57,2021,4,20,MARTES,N
1938,57,2021,4,21,MIERCOLES,N
1939,57,2021,4,22,JUEVEZ,N
1940,57,2021,4,23,VIERNES,N
1941,57,2021,4,24,SABADO,N
1942,57,2021,4,25,DOMINGO,N
1943,57,2021,4,26,LUNES,N
1944,57,2021,4,27,MARTES,N
1945,57,2021,4,28,MIERCOLES,N
1946,57,2021,4,29,JUEVEZ,N
1947,57,2021,4,30,VIERNES,N
1948,57,2021,5,1,SABADO,Y
1949,57,2021,5,2,DOMINGO,N
1950,57,2021,5,3,LUNES,N
1951,57,2021,5,4,MARTES,N
1952,57,2021,5,5,MIERCOLES,N
1953,57,2021,5,6,JUEVEZ,N
1954,57,2021,5,7,VIERNES,N
1955,57,2021,5,8,SABADO,N
1956,57,2021,5,9,DOMINGO,N
1957,57,2021,5,10,LUNES,N
1958,57,2021,5,11,MARTES,N
1959,57,2021,5,12,MIERCOLES,N
1960,57,2021,5,13,JUEVEZ,N
1961,57,2021,5,14,VIERNES,N
1962,57,2021,5,15,SABADO,N
1963,57,2021,5,16,DOMINGO,N
1964,57,2021,5,17,LUNES,Y
1965,57,2021,5,18,MARTES,N
1966,57,2021,5,19,MIERCOLES,N
1967,57,2021,5,20,JUEVEZ,N
1968,57,2021,5,21,VIERNES,N
1969,57,2021,5,22,SABADO,N
1970,57,2021,5,23,DOMINGO,N
1971,57,2021,5,24,LUNES,N
1972,57,2021,5,25,MARTES,N
1973,57,2021,5,26,MIERCOLES,N
1974,57,2021,5,27,JUEVEZ,N
1975,57,2021,5,28,VIERNES,N
1976,57,2021,5,29,SABADO,N
1977,57,2021,5,30,DOMINGO,N
1978,57,2021,5,31,LUNES,N
1979,57,2021,6,1,MARTES,N
1980,57,2021,6,2,MIERCOLES,N
1981,57,2021,6,3,JUEVEZ,N
1982,57,2021,6,4,VIERNES,N
1983,57,2021,6,5,SABADO,N
1984,57,2021,6,6,DOMINGO,N
1985,57,2021,6,7,LUNES,Y
1986,57,2021,6,8,MARTES,N
1987,57,2021,6,9,MIERCOLES,N
1988,57,2021,6,10,JUEVEZ,N
1989,57,2021,6,11,VIERNES,N
1990,57,2021,6,12,SABADO,N
1991,57,2021,6,13,DOMINGO,N
1992,57,2021,6,14,LUNES,Y
1993,57,2021,6,15,MARTES,N
1994,57,2021,6,16,MIERCOLES,N
1995,57,2021,6,17,JUEVEZ,N
1996,57,2021,6,18,VIERNES,N
1997,57,2021,6,19,SABADO,N
1998,57,2021,6,20,DOMINGO,N
1999,57,2021,6,21,LUNES,N
2000,57,2021,6,22,MARTES,N
2001,57,2021,6,23,MIERCOLES,N
2002,57,2021,6,24,JUEVEZ,N
2003,57,2021,6,25,VIERNES,N
2004,57,2021,6,26,SABADO,N
2005,57,2021,6,27,DOMINGO,N
2006,57,2021,6,28,LUNES,N
2007,57,2021,6,29,MARTES,N
2008,57,2021,6,30,MIERCOLES,N
2009,57,2021,7,1,JUEVEZ,N
2010,57,2021,7,2,VIERNES,N
2011,57,2021,7,3,SABADO,N
2012,57,2021,7,4,DOMINGO,N
2013,57,2021,7,5,LUNES,Y
2014,57,2021,7,6,MARTES,N
2015,57,2021,7,7,MIERCOLES,N
2016,57,2021,7,8,JUEVEZ,N
2017,57,2021,7,9,VIERNES,N
2018,57,2021,7,10,SABADO,N
2019,57,2021,7,11,DOMINGO,N
2020,57,2021,7,12,LUNES,N
2021,57,2021,7,13,MARTES,N
2022,57,2021,7,14,MIERCOLES,N
2023,57,2021,7,15,JUEVEZ,N
2024,57,2021,7,16,VIERNES,N
2025,57,2021,7,17,SABADO,N
2026,57,2021,7,18,DOMINGO,N
2027,57,2021,7,19,LUNES,N
2028,57,2021,7,20,MARTES,Y
2029,57,2021,7,21,MIERCOLES,N
2030,57,2021,7,22,JUEVEZ,N
2031,57,2021,7,23,VIERNES,N
2032,57,2021,7,24,SABADO,N
2033,57,2021,7,25,DOMINGO,N
2034,57,2021,7,26,LUNES,N
2035,57,2021,7,27,MARTES,N
2036,57,2021,7,28,MIERCOLES,N
2037,57,2021,7,29,JUEVEZ,N
2038,57,2021,7,30,VIERNES,N
2039,57,2021,7,31,SABADO,N
2040,57,2021,8,1,DOMINGO,N
2041,57,2021,8,2,LUNES,N
2042,57,2021,8,3,MARTES,N
2043,57,2021,8,4,MIERCOLES,N
2044,57,2021,8,5,JUEVEZ,N
2045,57,2021,8,6,VIERNES,N
2046,57,2021,8,7,SABADO,Y
2047,57,2021,8,8,DOMINGO,N
2048,57,2021,8,9,LUNES,N
2049,57,2021,8,10,MARTES,N
2050,57,2021,8,11,MIERCOLES,N
2051,57,2021,8,12,JUEVEZ,N
2052,57,2021,8,13,VIERNES,N
2053,57,2021,8,14,SABADO,N
2054,57,2021,8,15,DOMINGO,N
2055,57,2021,8,16,LUNES,Y
2056,57,2021,8,17,MARTES,N
2057,57,2021,8,18,MIERCOLES,N
2058,57,2021,8,19,JUEVEZ,N
2059,57,2021,8,20,VIERNES,N
2060,57,2021,8,21,SABADO,N
2061,57,2021,8,22,DOMINGO,N
2062,57,2021,8,23,LUNES,N
2063,57,2021,8,24,MARTES,N
2064,57,2021,8,25,MIERCOLES,N
2065,57,2021,8,26,JUEVEZ,N
2066,57,2021,8,27,VIERNES,N
2067,57,2021,8,28,SABADO,N
2068,57,2021,8,29,DOMINGO,N
2069,57,2021,8,30,LUNES,N
2070,57,2021,8,31,MARTES,N
2071,57,2021,9,1,MIERCOLES,N
2072,57,2021,9,2,JUEVEZ,N
2073,57,2021,9,3,VIERNES,N
2074,57,2021,9,4,SABADO,N
2075,57,2021,9,5,DOMINGO,N
2076,57,2021,9,6,LUNES,N
2077,57,2021,9,7,MARTES,N
2078,57,2021,9,8,MIERCOLES,N
2079,57,2021,9,9,JUEVEZ,N
2080,57,2021,9,10,VIERNES,N
2081,57,2021,9,11,SABADO,N
2082,57,2021,9,12,DOMINGO,N
2083,57,2021,9,13,LUNES,N
2084,57,2021,9,14,MARTES,N
2085,57,2021,9,15,MIERCOLES,N
2086,57,2021,9,16,JUEVEZ,N
2087,57,2021,9,17,VIERNES,N
2088,57,2021,9,18,SABADO,N
2089,57,2021,9,19,DOMINGO,N
2090,57,2021,9,20,LUNES,N
2091,57,2021,9,21,MARTES,N
2092,57,2021,9,22,MIERCOLES,N
2093,57,2021,9,23,JUEVEZ,N
2094,57,2021,9,24,VIERNES,N
2095,57,2021,9,25,SABADO,N
2096,57,2021,9,26,DOMINGO,N
2097,57,2021,9,27,LUNES,N
2098,57,2021,9,28,MARTES,N
2099,57,2021,9,29,MIERCOLES,N
2100,57,2021,9,30,JUEVEZ,N
2101,57,2021,10,1,VIERNES,N
2102,57,2021,10,2,SABADO,N
2103,57,2021,10,3,DOMINGO,N
2104,57,2021,10,4,LUNES,N
2105,57,2021,10,5,MARTES,N
2106,57,2021,10,6,MIERCOLES,N
2107,57,2021,10,7,JUEVEZ,N
2108,57,2021,10,8,VIERNES,N
2109,57,2021,10,9,SABADO,N
2110,57,2021,10,10,DOMINGO,N
2111,57,2021,10,11,LUNES,N
2112,57,2021,10,12,MARTES,N
2113,57,2021,10,13,MIERCOLES,N
2114,57,2021,10,14,JUEVEZ,N
2115,57,2021,10,15,VIERNES,N
2116,57,2021,10,16,SABADO,N
2117,57,2021,10,17,DOMINGO,N
2118,57,2021,10,18,LUNES,Y
2119,57,2021,10,19,MARTES,N
2120,57,2021,10,20,MIERCOLES,N
2121,57,2021,10,21,JUEVEZ,N
2122,57,2021,10,22,VIERNES,N
2123,57,2021,10,23,SABADO,N
2124,57,2021,10,24,DOMINGO,N
2125,57,2021,10,25,LUNES,N
2126,57,2021,10,26,MARTES,N
2127,57,2021,10,27,MIERCOLES,N
2128,57,2021,10,28,JUEVEZ,N
2129,57,2021,10,29,VIERNES,N
2130,57,2021,10,30,SABADO,N
2131,57,2021,10,31,DOMINGO,N
2132,57,2021,11,1,LUNES,Y
2133,57,2021,11,2,MARTES,N
2134,57,2021,11,3,MIERCOLES,N
2135,57,2021,11,4,JUEVEZ,N
2136,57,2021,11,5,VIERNES,N
2137,57,2021,11,6,SABADO,N
2138,57,2021,11,7,DOMINGO,N
2139,57,2021,11,8,LUNES,N
2140,57,2021,11,9,MARTES,N
2141,57,2021,11,10,MIERCOLES,N
2142,57,2021,11,11,JUEVEZ,N
2143,57,2021,11,12,VIERNES,N
2144,57,2021,11,13,SABADO,N
2145,57,2021,11,14,DOMINGO,N
2146,57,2021,11,15,LUNES,Y
2147,57,2021,11,16,MARTES,N
2148,57,2021,11,17,MIERCOLES,N
2149,57,2021,11,18,JUEVEZ,N
2150,57,2021,11,19,VIERNES,N
2151,57,2021,11,20,SABADO,N
2152,57,2021,11,21,DOMINGO,N
2153,57,2021,11,22,LUNES,N
2154,57,2021,11,23,MARTES,N
2155,57,2021,11,24,MIERCOLES,N
2156,57,2021,11,25,JUEVEZ,N
2157,57,2021,11,26,VIERNES,N
2158,57,2021,11,27,SABADO,N
2159,57,2021,11,28,DOMINGO,N
2160,57,2021,11,29,LUNES,N
2161,57,2021,11,30,MARTES,N
2162,57,2021,12,1,MIERCOLES,N
2163,57,2021,12,2,JUEVEZ,N
2164,57,2021,12,3,VIERNES,N
2165,57,2021,12,4,SABADO,N
2166,57,2021,12,5,DOMINGO,N
2167,57,2021,12,6,LUNES,N
2168,57,2021,12,7,MARTES,N
2169,57,2021,12,8,MIERCOLES,Y
2170,57,2021,12,9,JUEVEZ,N
2171,57,2021,12,10,VIERNES,N
2172,57,2021,12,11,SABADO,N
2173,57,2021,12,12,DOMINGO,N
2174,57,2021,12,13,LUNES,N
2175,57,2021,12,14,MARTES,N
2176,57,2021,12,15,MIERCOLES,N
2177,57,2021,12,16,JUEVEZ,N
2178,57,2021,12,17,VIERNES,N
2179,57,2021,12,18,SABADO,N
2180,57,2021,12,19,DOMINGO,N
2181,57,2021,12,20,LUNES,N
2182,57,2021,12,21,MARTES,N
2183,57,2021,12,22,MIERCOLES,N
2184,57,2021,12,23,JUEVEZ,N
2185,57,2021,12,24,VIERNES,N
2186,57,2021,12,25,SABADO,Y
2187,57,2021,12,26,DOMINGO,N
2188,57,2021,12,27,LUNES,N
2189,57,2021,12,28,MARTES,N
2190,57,2021,12,29,MIERCOLES,N
2191,57,2021,12,30,JUEVEZ,N
2192,57,2021,12,31,VIERNES,N
