{"idcliente":21.0,"dpto":5.0,"sexo":"F","comisiones":[10.0,15.0,20.0]}
{"idcliente":23.0,"dpto":5.0,"sexo":"F","comisiones":[10.0,5.0]}
{"idcliente":11.0,"dpto":5.0,"sexo":"M","comisiones":[10.0]}
{"idcliente":54.0,"dpto":88.0,"sexo":"M","comisiones":[5.0,5.0]}
{"idcliente":763.0,"dpto":88.0,"sexo":"M","comisiones":[30.0]}
