first_name,last_name,email_dependents,age
Alvis,Yeoland,"cfowellsd@apache.org,Dcastello2l@homestead.com  ,fziemsen1@themeforest.net  , csnary2@instagram.com  ,    bkliment3@nationalgeographic.com,aquarless4@technorati.com, ggalbraeth5@arizona.edu,rpowton6@instagram.com,adressel7@icq.com,kegginson8@cdbaby.com,Nvears9@ifeng.com",33
Finley,Ziemsen,"ecloakei@oaic,fhubeauxa@google.com.br,tkemwallb@1und1.de,toldknowc@nymag.com",22
Corie,Snary,"cfowellsd@apache.org,kpeggrame@weibo.com,kpeggrame@weibo.com,kpeggrame@weibo.com",15
Byrann,Kliment,"ecloakei@oaic.gov.au, kpeggrame@weibo",11
Artair,Quarless,"cfowellsd@apache.org,kpeggrame@weibo.com,asparrowef@naver.com,glastg@pcworld.com,lbransbyh@example.com,cfowellsd@apache.org",12
